<svg width="375" height="350" viewBox="0 0 375 350" fill="none" xmlns="http://www.w3.org/2000/svg">
<path fill-rule="evenodd" clip-rule="evenodd" d="M186.418 337.733C168.057 334.451 152.191 323.255 133.64 321.323C104.431 318.283 61.6928 348.531 46.667 323.185C30.2989 295.575 89.2261 266.471 82.4976 235.055C75.9011 204.254 18.2844 202.988 14.2336 171.747C10.8809 145.889 44.3622 128.313 67.0038 115.561C87.2949 104.133 111.654 104.26 134.911 103.782C152.574 103.419 169.117 116.701 186.418 113.106C209.893 108.227 225.354 79.7067 249.324 80.0023C272.009 80.282 306.755 91.8041 307.04 114.593C307.461 148.173 238.678 165.165 250.784 196.469C265.667 234.956 339.169 215.256 359.781 250.977C373.031 273.939 342.4 303.001 321.953 319.808C302.064 336.155 274.567 338.591 249.089 341.961C228.067 344.742 207.293 341.465 186.418 337.733Z" fill="url(#paint0_linear_1_2899)"/>
<mask id="mask0_1_2899" style="mask-type:alpha" maskUnits="userSpaceOnUse" x="0" y="0" width="375" height="350">
<rect width="375" height="350" rx="30" fill="#C4C4C4"/>
</mask>
<g mask="url(#mask0_1_2899)">
<path d="M225.231 91.3478C225.231 91.3478 243.702 95.8013 251.015 104.396C258.328 112.991 255.814 135.143 253.907 147.896C252.001 160.648 246.89 169.867 252.938 174.321C258.985 178.774 261.155 174.649 261.155 174.649C261.155 174.649 252.938 188.651 244.277 190.574C235.617 192.496 223.571 181.65 221.665 172.102C219.758 162.554 218.477 148.208 220.021 138.331C221.566 128.455 224.59 125.102 226.118 118.414C227.647 111.725 226.43 100.583 226.43 100.583L225.231 91.3478Z" fill="#3B2645"/>
<path d="M198.478 332.938C235.417 332.938 265.362 307.841 265.362 276.883C265.362 245.924 235.417 220.828 198.478 220.828C161.538 220.828 131.593 245.924 131.593 276.883C131.593 307.841 161.538 332.938 198.478 332.938Z" fill="#AB8DA8"/>
<path d="M141.749 145.069L140.287 144.1L133.467 133.878L138.923 122.868L151.182 122.062L152.645 123.049L141.749 145.069Z" fill="#393762"/>
<path d="M154.008 144.28L141.749 145.069L134.929 134.848L140.368 123.837L152.644 123.048L159.448 133.27L154.008 144.28Z" fill="#636183"/>
<path d="M183.523 140.419C180.458 143.8 177.84 147.561 175.734 151.61C171.593 159.169 161.125 169.687 159.185 171.823C158.272 172.972 157.101 173.89 155.767 174.502C153.921 169.096 152.46 163.566 151.396 157.953C150.426 151.38 148.964 138.463 148.964 138.463L152.858 130.674C152.858 130.674 149.687 124.33 148.471 123.87C147.255 123.41 144.822 124.1 141.174 127.272C137.526 130.444 136.047 133.599 137.756 137.477C139.465 141.355 143.113 145.267 142.686 151.594C142.259 157.92 142.456 180.089 144.642 187.386C146.827 194.682 146.597 194.699 149.572 194.699C152.546 194.699 161.075 191.034 170.031 186.482C175.277 183.862 179.73 179.891 182.932 174.978L183.523 140.419Z" fill="#FFEDE5"/>
<path d="M202.027 136.534C197.941 135.84 193.76 135.918 189.702 136.764C183.654 138.227 180.516 142.089 179.3 149.106C178.084 156.123 173.745 164.833 176.654 171.406C179.563 177.98 182.208 183.025 182.455 188.333C182.573 193.399 182.337 198.468 181.748 203.501C181.268 204.507 180.718 205.479 180.105 206.41C180.105 206.41 179.612 210.272 167.517 206.886C155.422 203.501 139.958 204.471 124.001 208.102C108.044 211.734 99.5805 214.676 98.8574 219.951C98.1343 225.226 98.1343 258.143 99.5805 267.822C100.394 274.339 100.233 280.941 99.1039 287.411C95.0961 290.2 90.7984 292.547 86.2857 294.411C79.5151 297.074 75.6532 298.52 76.8529 300.985C78.0525 303.45 82.6539 303.894 88.4549 303.894C94.256 303.894 102.243 303.417 102.243 303.417C102.243 303.417 94.9955 308.002 90.1476 311.141C85.2997 314.28 80.7312 315.019 82.9004 318.404C85.0696 321.79 105.907 320.82 110.952 320.82C115.998 320.82 121.831 318.881 122.308 316.712C122.785 314.543 120.862 307.032 120.862 304.14C120.862 301.248 120.139 288.413 123.031 282.612C125.923 276.811 130.295 259.885 130.048 253.36C129.802 246.836 129.325 242.728 129.325 242.728C129.325 242.728 157.098 246.541 167.944 250.402C178.79 254.264 202.997 257.42 214.369 251.865C225.741 246.31 230.326 239.523 228.633 229.86C226.94 220.198 222.339 213.904 223.555 202.532C224.771 191.159 224.755 180.05 227.664 174.496C230.572 168.941 237.096 159.015 236.603 152.491C236.11 145.967 224.032 139.344 217.984 137.011C211.937 134.677 202.027 136.534 202.027 136.534Z" fill="#FFEDE5"/>
<path d="M98.7918 220.532C98.0687 225.84 98.0687 258.724 99.5149 268.403C100.328 274.92 100.168 281.522 99.0383 287.992C95.0305 290.781 90.7328 293.128 86.2202 294.993C79.4495 297.655 75.5876 299.101 76.7873 301.566C77.9869 304.031 82.5883 304.475 88.3894 304.475C93.3194 304.475 99.7778 304.13 101.635 304.015C102.802 303.637 105.086 302.832 105.086 302.372C105.086 301.911 107.009 284.295 107.255 267.302C107.502 250.31 109.441 230.688 109.441 230.688L107.272 221.979C105.281 220.109 103.137 218.411 100.862 216.901C99.7567 217.822 99.0213 219.112 98.7918 220.532Z" fill="#FFEDE5"/>
<path d="M104.593 295.962C104.593 295.962 103.87 294.319 102.654 291.131C102.44 290.303 101.979 289.56 101.334 289C100.688 288.439 99.8878 288.088 99.0383 287.992C95.0305 290.781 90.7328 293.128 86.2202 294.993C79.4495 297.655 75.5876 299.101 76.7873 301.566C77.9869 304.031 82.5883 304.475 88.3894 304.475C93.3194 304.475 99.7778 304.13 101.635 304.015C102.802 303.637 105.086 302.832 105.086 302.372C105.086 302.109 105.316 299.742 105.645 296.077L104.593 295.962Z" fill="#3B2645"/>
<path d="M197.919 214.961C191.692 211.683 186.27 207.064 182.044 201.436C181.913 202.866 181.798 203.868 181.732 204.082C181.251 205.088 180.702 206.06 180.089 206.991C180.089 206.991 179.596 210.853 167.501 207.467C155.405 204.082 139.942 205.052 123.985 208.683C108.028 212.315 99.5643 215.257 98.8412 220.532C98.8412 220.779 98.8412 221.091 98.7426 221.452C99.6735 222.81 100.677 224.115 101.75 225.364C103.855 227.723 106.491 229.548 109.441 230.688C110.18 234.073 114.765 244.706 121.536 244.706C128.307 244.706 129.276 243.26 129.276 243.26C129.276 243.26 157.098 247.122 167.944 250.983C178.79 254.845 202.997 258.001 214.369 252.446C225.741 246.891 230.326 240.104 228.633 230.441C227.882 226.729 226.877 223.072 225.626 219.497C218.264 219.891 206.399 219.645 197.919 214.961Z" fill="#3B2645"/>
<path d="M181.748 204.082C181.267 205.088 180.718 206.06 180.105 206.991C180.105 206.991 179.612 210.853 167.517 207.468C155.421 204.082 139.958 205.052 124.001 208.684C108.044 212.316 99.5803 215.257 98.8572 220.532C98.7093 221.601 98.5943 223.819 98.5121 226.662C101.692 229.028 105.486 230.426 109.44 230.688C111.17 227.701 113.667 225.231 116.671 223.532C119.676 221.833 123.08 220.968 126.531 221.025C138.758 221.025 190.441 221.979 190.441 221.979L197.343 206.252C197.343 206.252 189.127 200.451 182.373 196.671C182.159 200.385 181.863 203.672 181.748 204.082Z" fill="#3B2645"/>
<path d="M223.653 205.348C224.278 202.669 236.603 188.503 237.836 183.573C239.068 178.643 243.587 163.639 239.479 155.012C235.371 146.384 230.227 144.33 230.227 144.33C226.452 141.555 222.344 139.264 218 137.51C211.969 135.094 202.043 137.033 202.043 137.033C197.957 136.339 193.776 136.417 189.718 137.263C183.671 138.726 180.532 142.588 179.316 149.605C178.1 156.622 173.745 165.414 176.654 171.988C179.562 178.561 182.208 183.606 182.455 188.914C182.573 193.98 182.337 199.049 181.748 204.082C181.267 205.088 180.718 206.06 180.105 206.991V207.09C181.896 210.787 186.004 218.593 190.523 221.978C194.766 222.109 198.845 223.64 202.126 226.333C207.056 230.688 213.021 231.641 219.545 231.641C222.641 231.518 225.705 230.965 228.649 229.998C227.006 221.387 223.21 215.389 223.473 205.89C223.569 205.723 223.63 205.539 223.653 205.348Z" fill="#AB8DA8"/>
<path d="M221.024 122.506C221.024 122.506 227.088 113.188 228.058 105.218C229.027 97.2478 227.581 89.8198 218.871 85.1527C210.162 80.4855 197.344 85.1527 193.482 89.8198C189.62 94.4869 190.096 103.361 189.127 105.3C188.157 107.239 183.802 110.378 184.295 111.594C184.788 112.81 187.927 114.47 187.927 114.47L189.57 121.964C190.047 124.149 191.493 127.042 193.186 127.042C195.486 126.802 197.77 126.418 200.022 125.891C200.022 125.891 200.499 133.451 199.069 136.491C197.146 140.599 187.237 165.217 191.592 167.715C195.947 170.213 214.369 150.887 219.677 146.778C224.985 142.67 218.033 137.592 218.033 137.592C218.033 137.592 215.651 137.494 216.62 131.446C217.046 128.057 218.597 124.909 221.024 122.506Z" fill="#FFEDE5"/>
<path d="M110.887 321.352C115.965 321.352 121.766 319.413 122.242 317.244C122.637 315.502 121.486 310.391 120.993 306.907C119.993 307.266 118.948 307.487 117.887 307.565C115.293 307.654 112.697 307.411 110.164 306.842C110.106 305.841 109.861 304.859 109.441 303.949C108.718 302.306 105.102 302.306 105.102 302.306L101.109 304.048H102.193C102.193 304.048 94.9462 308.633 90.0983 311.772C85.2504 314.91 80.6819 315.65 82.8511 319.035C85.0203 322.421 105.809 321.352 110.887 321.352Z" fill="#3B2645"/>
<path d="M231.181 106.894C232.134 98.9239 227.582 89.8197 218.872 85.1526C211.592 81.3072 201.469 83.9037 196.046 87.5355C197.13 87.7318 198.105 88.3159 198.79 89.1788C202.29 93.0078 200.433 100.009 203.572 103.197C206.711 106.385 208.338 105.432 208.338 105.432C208.338 105.432 211.855 99.6963 213.432 105.432C215.01 111.167 212.808 113.648 211.214 114.339C210.08 114.766 208.908 115.085 207.713 115.292C207.713 115.292 216.259 122.835 221.025 122.572C221.025 122.506 230.211 114.881 231.181 106.894Z" fill="#3B2645"/>
<path d="M145.94 148.52L144.494 147.534L137.674 137.313L143.113 126.302L155.373 125.513L156.835 126.483L145.94 148.52Z" fill="#393762"/>
<path d="M158.215 147.715L145.939 148.52L139.136 138.282L144.575 127.272L156.835 126.483L163.654 136.705L158.215 147.715Z" fill="#636183"/>
<path d="M243.521 240.104C241.814 236.084 240.824 231.796 240.596 227.434C240.596 222.981 235.485 211.494 235.485 208.946C236.177 198.94 237.406 188.978 239.166 179.103C241.96 169.703 241.73 159.531 239.479 155.012C237.227 150.492 228.172 151.314 225.707 158.709C223.242 166.104 223.39 180.451 223.39 180.451C222.568 186.893 222.01 201.256 221.747 209.883C221.566 217.558 223.193 225.298 226.874 230.82C232.084 238.642 234.549 248.896 236.143 248.896C237.737 248.896 246.183 247.845 246.183 247.845C246.183 247.845 246.627 246.974 243.521 240.104Z" fill="#FFEDE5"/>
<path d="M248.075 256.226C248.075 256.226 249.718 247.319 249.356 245.396C248.995 243.474 243.621 244.772 241.386 244.772C239.151 244.772 237.574 244.443 237.886 245.725C238.198 247.007 242.668 247.368 242.668 247.368L244.311 247.993L248.075 256.226Z" fill="#FFEDE5"/>
<path d="M259.002 249.915H226.2V254.369H259.002V249.915Z" fill="#636183"/>
<path d="M271.097 240.055H256.767V263.621H271.097V240.055Z" fill="#636183"/>
<path d="M226.825 240.055H212.495V263.621H226.825V240.055Z" fill="#636183"/>
<path d="M232.248 246.415L234.039 255.157C234.157 255.741 234.481 256.264 234.951 256.629C235.422 256.994 236.008 257.177 236.603 257.146C238.838 257.014 242.305 256.817 244.343 256.604C247.531 256.291 248.485 257.244 248.813 254.96C248.961 253.81 249.208 251.674 249.421 249.866C249.464 249.47 249.421 249.07 249.295 248.692C249.17 248.314 248.964 247.968 248.693 247.676C248.422 247.385 248.091 247.155 247.724 247.003C247.356 246.85 246.96 246.779 246.562 246.793C244.08 246.793 240.958 246.99 240.202 246.99C238.937 247.056 234.795 243.555 232.248 246.415Z" fill="#FFEDE5"/>
</g>
<defs>
<linearGradient id="paint0_linear_1_2899" x1="14" y1="80" x2="477.048" y2="127.548" gradientUnits="userSpaceOnUse">
<stop stop-color="#92A3FD"/>
<stop offset="1" stop-color="#9DCEFF"/>
</linearGradient>
</defs>
</svg>
