<svg width="20" height="20" viewBox="0 0 20 20" fill="none" xmlns="http://www.w3.org/2000/svg">
<path d="M15 1.66675H12.5C11.3949 1.66675 10.3351 2.10573 9.55372 2.88714C8.77232 3.66854 8.33333 4.72835 8.33333 5.83342V8.33342H5.83333V11.6667H8.33333V18.3334H11.6667V11.6667H14.1667L15 8.33342H11.6667V5.83342C11.6667 5.6124 11.7545 5.40044 11.9107 5.24416C12.067 5.08788 12.279 5.00008 12.5 5.00008H15V1.66675Z" fill="#1877F2"/>
</svg>
