<svg width="50" height="50" viewBox="0 0 50 50" fill="none" xmlns="http://www.w3.org/2000/svg">
<mask id="mask0_1_5742" style="mask-type:alpha" maskUnits="userSpaceOnUse" x="0" y="0" width="50" height="50">
<circle cx="25" cy="25" r="25" fill="#C4C4C4"/>
</mask>
<g mask="url(#mask0_1_5742)">
<g clip-path="url(#clip0_1_5742)">
<g opacity="0.3">
<path opacity="0.3" d="M17.2125 29.7038H17.1926L16.4285 29.4817C16.4023 29.4735 16.3803 29.4552 16.3672 29.4306C16.354 29.4061 16.3509 29.3772 16.3583 29.3503C16.3658 29.3234 16.3833 29.3005 16.4071 29.2866C16.4309 29.2727 16.459 29.2689 16.4856 29.2759L17.2444 29.4953C17.2684 29.5033 17.2888 29.52 17.3018 29.5422C17.3147 29.5644 17.3194 29.5906 17.3148 29.6161C17.3103 29.6415 17.2969 29.6644 17.2771 29.6805C17.2574 29.6966 17.2325 29.7049 17.2072 29.7038H17.2125Z" fill="black"/>
<path opacity="0.3" d="M16.4286 30.305C16.4069 30.303 16.3864 30.2943 16.3698 30.28C16.3532 30.2657 16.3413 30.2466 16.3357 30.2252C16.3315 30.2111 16.3302 30.1963 16.3319 30.1817C16.3335 30.1672 16.3381 30.1531 16.3453 30.1404C16.3525 30.1277 16.3622 30.1166 16.3738 30.1079C16.3854 30.0992 16.3986 30.093 16.4127 30.0898L17.1768 29.8921C17.2033 29.8862 17.231 29.8911 17.254 29.9057C17.2771 29.9202 17.2937 29.9434 17.3004 29.9702C17.3071 29.997 17.3034 30.0255 17.29 30.0495C17.2765 30.0736 17.2545 30.0914 17.2285 30.0992L16.4631 30.2969C16.4521 30.3016 16.4404 30.3044 16.4286 30.305Z" fill="black"/>
<path opacity="0.3" d="M16.8187 31.0254C16.7935 31.0229 16.77 31.0114 16.7523 30.9929C16.733 30.9729 16.7221 30.9459 16.7221 30.9178C16.7221 30.8896 16.733 30.8626 16.7523 30.8426L17.3174 30.2807C17.3271 30.2699 17.3387 30.2612 17.3518 30.2551C17.3648 30.2491 17.3789 30.2459 17.3932 30.2456C17.4075 30.2454 17.4217 30.2481 17.435 30.2537C17.4482 30.2592 17.4602 30.2675 17.4701 30.278C17.4801 30.2884 17.4879 30.3009 17.493 30.3145C17.4981 30.3282 17.5004 30.3427 17.4997 30.3573C17.4991 30.3719 17.4955 30.3862 17.4893 30.3993C17.483 30.4125 17.4742 30.4242 17.4634 30.4337L16.9009 30.9983C16.8898 31.0084 16.8767 31.016 16.8626 31.0207C16.8484 31.0253 16.8335 31.027 16.8187 31.0254Z" fill="black"/>
<path opacity="0.3" d="M17.5043 31.4519H17.4844C17.4709 31.4481 17.4582 31.4415 17.4472 31.4325C17.4362 31.4235 17.4271 31.4124 17.4205 31.3998C17.4138 31.3871 17.4096 31.3732 17.4083 31.3589C17.407 31.3446 17.4085 31.3302 17.4128 31.3165L17.6224 30.542C17.6304 30.5152 17.6484 30.4928 17.6724 30.4794C17.6965 30.466 17.7248 30.4627 17.7511 30.4703C17.7775 30.478 17.7999 30.4958 17.8135 30.5201C17.8272 30.5444 17.8309 30.5732 17.824 30.6002L17.6091 31.3748C17.6026 31.3977 17.5888 31.4178 17.5698 31.4318C17.5508 31.4458 17.5277 31.4529 17.5043 31.4519Z" fill="black"/>
</g>
<path d="M38.2281 19.4276L36.3272 20.5447L32.1644 21.1595C32.1644 21.1595 29.1252 16.4988 28.6596 15.7662C28.194 15.0337 27.6488 14.5638 26.3872 14.5652L26.626 18.2834C26.6658 18.404 29.1823 21.5684 30.8418 23.2935C31.4282 23.9015 31.7877 24.0572 32.699 23.7972C35.0377 23.1351 37.8726 21.173 38.1008 20.6828C38.4072 20.0424 38.2056 19.4412 38.2281 19.4276Z" fill="#FFEDE5"/>
<path d="M37.4466 17.0704C37.6959 16.239 38.7147 15.562 39.6606 15.8328C39.8104 15.8751 39.954 15.9374 40.0877 16.0183C41.0163 16.5599 41.7552 17.8801 41.7552 18.9661C41.7583 19.1495 41.7332 19.3322 41.6809 19.5077C41.4329 20.3378 40.4167 21.0202 39.4669 20.748C39.3173 20.7052 39.1737 20.6428 39.0398 20.5625C38.1191 20.0209 37.3723 18.6993 37.3723 17.6134C37.3696 17.4296 37.3946 17.2464 37.4466 17.0704Z" fill="#455A64"/>
<path d="M39.0412 20.5543C38.1206 20.0127 37.3737 18.6911 37.3737 17.6052C37.3737 16.5192 38.1206 16.0805 39.0412 16.6221C39.9619 17.1638 40.7048 18.484 40.7048 19.5699C40.7048 20.6559 39.9619 21.096 39.0412 20.5543Z" fill="#37474F"/>
<path d="M39.041 17.8258C38.6869 17.6173 38.399 17.7866 38.399 18.2036C38.411 18.431 38.4755 18.6522 38.587 18.8494C38.6986 19.0465 38.8541 19.2141 39.041 19.3383C39.3952 19.5469 39.6818 19.3776 39.6818 18.9605C39.67 18.7333 39.6058 18.5121 39.4945 18.3149C39.3831 18.1177 39.2278 17.9502 39.041 17.8258Z" fill="#455A64"/>
<path d="M38.821 18.4531C38.8252 18.5309 38.8474 18.6067 38.8856 18.6742C38.9239 18.7417 38.9772 18.7991 39.0412 18.8417C39.0622 18.8571 39.0866 18.8671 39.1123 18.8706C39.138 18.8742 39.1641 18.8712 39.1884 18.862L39.2043 18.8525C39.2233 18.8359 39.2382 18.815 39.2479 18.7915C39.2576 18.768 39.2617 18.7425 39.26 18.7171C39.2558 18.6394 39.2338 18.5637 39.1958 18.4963C39.1578 18.4288 39.1048 18.3713 39.0412 18.3285C39.0201 18.313 38.9957 18.3031 38.97 18.2995C38.9443 18.296 38.9182 18.299 38.8939 18.3082L38.878 18.3177C38.8587 18.334 38.8435 18.3548 38.8336 18.3784C38.8237 18.4019 38.8193 18.4275 38.821 18.4531Z" fill="#37474F"/>
<path d="M35.299 20.5288C35.3031 20.6066 35.325 20.6823 35.363 20.7498C35.401 20.8173 35.4541 20.8747 35.5178 20.9175C35.5464 20.9362 35.5794 20.9465 35.6133 20.9472C35.6391 20.9467 35.6643 20.9393 35.6863 20.9256L39.1884 18.862L39.2044 18.8525C39.2233 18.8359 39.2382 18.815 39.2479 18.7915C39.2576 18.768 39.2618 18.7425 39.2601 18.7171C39.2559 18.6394 39.2339 18.5637 39.1959 18.4963C39.1579 18.4288 39.1049 18.3713 39.0412 18.3285C39.0202 18.313 38.9957 18.3031 38.9701 18.2995C38.9444 18.296 38.9182 18.299 38.8939 18.3082L38.878 18.3177L35.3759 20.3812C35.3508 20.396 35.3302 20.4176 35.3166 20.4437C35.303 20.4698 35.2969 20.4993 35.299 20.5288Z" fill="#FAFAFA"/>
<path d="M31.8619 20.3623C32.11 19.5322 33.1261 18.8457 34.0759 19.1179C34.2259 19.161 34.3698 19.2233 34.5044 19.3034C35.425 19.845 36.1719 21.1666 36.1719 22.2526C36.1741 22.4359 36.1491 22.6185 36.0976 22.7942C35.8482 23.6242 34.8334 24.3067 33.8836 24.0359C33.7341 23.9928 33.5905 23.9304 33.4564 23.8504C32.5358 23.3087 31.7889 21.9872 31.7889 20.9026C31.7859 20.7197 31.8105 20.5375 31.8619 20.3623Z" fill="#455A64"/>
<path d="M33.455 23.8448C32.5344 23.3032 31.7875 21.9816 31.7875 20.897C31.7875 19.8124 32.5344 19.371 33.455 19.9126C34.3756 20.4543 35.1225 21.7758 35.1225 22.8618C35.1225 23.9477 34.377 24.3878 33.455 23.8448Z" fill="#37474F"/>
<path d="M33.4549 21.1138C33.1007 20.9039 32.8142 21.0732 32.8142 21.4916C32.8262 21.7186 32.8905 21.9395 33.0018 22.1365C33.1131 22.3334 33.2683 22.5007 33.4549 22.6249C33.8091 22.8335 34.097 22.6642 34.097 22.2471C34.0847 22.02 34.0202 21.7991 33.9086 21.6021C33.7971 21.4052 33.6416 21.2379 33.4549 21.1138Z" fill="#455A64"/>
<path d="M33.2361 21.7431C33.2402 21.8209 33.2621 21.8965 33.3002 21.964C33.3382 22.0315 33.3912 22.089 33.455 22.1317C33.476 22.1472 33.5004 22.1571 33.5261 22.1607C33.5518 22.1642 33.5779 22.1612 33.6022 22.152C33.6081 22.15 33.6135 22.1468 33.6181 22.1426C33.6373 22.1261 33.6525 22.1053 33.6624 22.0818C33.6723 22.0583 33.6767 22.0327 33.6752 22.0071C33.6708 21.9293 33.6486 21.8536 33.6104 21.7861C33.5721 21.7186 33.5189 21.6612 33.455 21.6185C33.434 21.6035 33.4097 21.5939 33.3843 21.5906C33.3589 21.5873 33.333 21.5904 33.309 21.5996L33.2931 21.6091C33.2739 21.6252 33.2586 21.6457 33.2487 21.669C33.2388 21.6923 33.2345 21.7177 33.2361 21.7431Z" fill="#37474F"/>
<path d="M32.7055 22.0615C32.7093 22.1393 32.7311 22.2151 32.7692 22.2827C32.8072 22.3502 32.8604 22.4076 32.9244 22.4501C32.9529 22.4689 32.986 22.4792 33.0199 22.4799C33.0457 22.4793 33.0708 22.4718 33.0929 22.4582L33.6023 22.1576C33.6081 22.1556 33.6136 22.1524 33.6182 22.1482C33.6374 22.1317 33.6526 22.1109 33.6625 22.0874C33.6724 22.0639 33.6767 22.0383 33.6752 22.0128C33.6709 21.9349 33.6487 21.8592 33.6104 21.7917C33.5722 21.7242 33.519 21.6668 33.455 21.6241C33.434 21.6091 33.4098 21.5996 33.3844 21.5963C33.3589 21.593 33.3331 21.596 33.3091 21.6052L33.2932 21.6147L32.7825 21.9139C32.7573 21.9286 32.7368 21.9503 32.7231 21.9764C32.7095 22.0025 32.7034 22.032 32.7055 22.0615Z" fill="#FAFAFA"/>
<path d="M32.7055 22.0614C32.7094 22.1393 32.7313 22.2153 32.7693 22.283C32.8073 22.3508 32.8605 22.4085 32.9244 22.4513C32.9456 22.4664 32.9701 22.4759 32.9957 22.4792C33.0214 22.4825 33.0474 22.4795 33.0716 22.4703L33.0876 22.4608C33.1069 22.4445 33.1222 22.4237 33.1321 22.4002C33.1421 22.3766 33.1463 22.351 33.1446 22.3254C33.1401 22.2474 33.1179 22.1715 33.0797 22.1038C33.0415 22.0361 32.9883 21.9785 32.9244 21.9354C32.9032 21.9204 32.8787 21.9108 32.853 21.9075C32.8274 21.9042 32.8014 21.9073 32.7771 21.9165L32.7612 21.926C32.7422 21.9425 32.7272 21.9633 32.7175 21.9869C32.7078 22.0104 32.7037 22.0359 32.7055 22.0614Z" fill="#E0E0E0"/>
<path d="M37.0129 21.6363C37.8181 21.0093 38.5901 21.0134 38.4509 19.4806C38.3328 18.8036 38.1683 18.7548 37.5223 18.4975C37.2384 18.3852 36.859 18.2998 36.6321 18.5652C36.6072 18.5986 36.5797 18.6298 36.5499 18.6587C36.483 18.7022 36.4062 18.7274 36.327 18.7318C36.1758 18.7393 36.032 18.8012 35.9211 18.9065C35.8455 18.9945 35.8163 19.115 35.742 19.203C35.6706 19.272 35.5939 19.3349 35.5125 19.3912C35.4542 19.4429 35.4072 19.5064 35.3745 19.5778C35.3418 19.6492 35.3242 19.7268 35.3228 19.8056C35.3282 19.8956 35.3528 19.9834 35.395 20.0627C35.4371 20.142 35.4958 20.2109 35.5669 20.2646L35.9728 20.0263C36.1387 19.9098 36.4809 20.3255 36.3337 20.5449C36.0989 20.8942 37.0129 21.6363 37.0129 21.6363Z" fill="#FFEDE5"/>
<path d="M27.6341 24.7181C27.8915 23.6565 27.9658 21.0039 27.9658 21.0039L20.4335 21.2341L20.8434 22.9091C20.9111 23.2867 20.947 23.6694 20.9509 24.0533C20.9509 24.0533 21.6818 25.4358 23.8494 25.6781C25.1813 25.8077 26.5166 25.469 27.6341 24.7181Z" fill="#FFEDE5"/>
<path d="M27.9698 21.004C27.9791 21.088 27.926 21.8909 27.926 21.8909C26.9629 22.7183 23.8734 23.1367 20.6299 22.0358L19.9427 19.3277C19.9427 19.3277 22.2749 18.2824 20.6989 14.7753L22.3929 14.6399L25.4002 14.5627H26.3872C27.1987 15.3675 27.8846 16.2945 28.4208 17.3115C28.8148 18.0616 29.3163 19.1611 27.9698 21.004Z" fill="#455A64"/>
<path d="M23.7075 21.0284C22.3505 20.675 22.0109 19.8097 21.914 19.1733C21.914 19.1733 21.658 21.0284 23.5974 21.4604C25.643 21.9153 26.4841 20.262 26.4841 20.262C26.4841 20.262 25.3445 21.4549 23.7075 21.0284Z" fill="#37474F"/>
<path d="M12.1558 41.6709C11.7578 41.9674 10.8411 42.0392 10.0333 41.6519C9.22538 41.2646 8.88843 40.1624 9.03966 39.3107C9.22272 38.2722 9.72549 37.7048 9.85284 37.0792C9.98019 36.4537 9.85284 35.5898 10.0465 35.0319C10.1264 34.8175 10.2507 34.6232 10.411 34.4624C10.5712 34.3016 10.7637 34.1781 10.9751 34.1003C11.1099 34.0471 11.2548 34.0262 11.3988 34.0391C11.5428 34.052 11.6819 34.0984 11.8055 34.1748L12.0443 34.3183L12.1558 41.6709Z" fill="#263238"/>
<path d="M13.1042 37.7102L12.4754 39.6357C12.4754 39.6357 12.8734 41.0087 12.6492 41.3743C12.3189 41.9159 11.7365 42.0107 10.7562 41.7047C9.63524 41.3567 9.37126 40.3208 9.42963 39.5165C9.50922 38.3696 10.5479 37.5071 10.4285 36.4022C10.3702 35.8606 10.4431 35.2553 10.7336 34.7895C11.0586 34.2695 11.5919 34.172 12.1451 34.3413C12.62 34.4875 13.0366 34.7922 13.4385 35.0779C13.5539 35.1529 13.6584 35.244 13.7489 35.3487C13.8209 35.4467 13.8749 35.5573 13.9081 35.675C13.9808 35.9117 14.0026 36.1616 13.9718 36.4076C13.9426 36.6378 13.798 36.7718 13.664 36.9492L13.1042 37.7102Z" fill="url(#paint0_linear_1_5742)"/>
<path d="M15.8144 36.7991C15.7759 36.7842 13.855 35.5303 13.6481 35.4356C13.4411 35.3408 12.9317 35.2067 12.4396 36.3699C12.088 37.1972 12.5935 37.5032 12.5935 37.5032L14.8486 38.8708L15.8144 36.7991Z" fill="#FFEDE5"/>
<path d="M12.4755 39.6358C12.069 39.4285 11.6191 39.3257 11.1648 39.3366C11.1311 39.3398 11.0971 39.3345 11.0658 39.3212C11.0346 39.3079 11.007 39.2869 10.9855 39.2602C10.964 39.2334 10.9493 39.2017 10.9426 39.1678C10.936 39.1339 10.9376 39.0989 10.9473 39.0658C10.96 39.0263 10.984 38.9916 11.0161 38.966C11.0482 38.9405 11.0871 38.9252 11.1277 38.9222C11.4315 38.8978 12.169 38.8884 12.6585 39.3C12.7885 39.5681 12.4755 39.6358 12.4755 39.6358Z" fill="url(#paint1_linear_1_5742)"/>
<path d="M12.7063 38.7555C12.3111 38.527 11.867 38.401 11.4129 38.3885C11.3787 38.3903 11.3446 38.3833 11.3137 38.3683C11.2828 38.3533 11.256 38.3307 11.2358 38.3025C11.2156 38.2743 11.2025 38.2414 11.1977 38.2068C11.193 38.1722 11.1967 38.137 11.2086 38.1042C11.2233 38.0653 11.2488 38.0317 11.2821 38.0076C11.3154 37.9835 11.3549 37.97 11.3957 37.9688C11.7008 37.9607 12.4384 37.9918 12.9066 38.4278C13.022 38.7054 12.7063 38.7555 12.7063 38.7555Z" fill="url(#paint2_linear_1_5742)"/>
<path opacity="0.3" d="M12.4755 39.6358C12.069 39.4285 11.6191 39.3257 11.1648 39.3366C11.1311 39.3398 11.0971 39.3345 11.0658 39.3212C11.0346 39.3079 11.007 39.2869 10.9855 39.2602C10.964 39.2334 10.9493 39.2017 10.9426 39.1678C10.936 39.1339 10.9376 39.0989 10.9473 39.0658C10.96 39.0263 10.984 38.9916 11.0161 38.966C11.0482 38.9405 11.0871 38.9252 11.1277 38.9222C11.4315 38.8978 12.169 38.8884 12.6585 39.3C12.7885 39.5681 12.4755 39.6358 12.4755 39.6358Z" fill="black"/>
<path opacity="0.3" d="M12.7063 38.7555C12.3111 38.527 11.867 38.401 11.4129 38.3885C11.3787 38.3903 11.3446 38.3833 11.3137 38.3683C11.2828 38.3533 11.256 38.3307 11.2358 38.3025C11.2156 38.2743 11.2025 38.2414 11.1977 38.2068C11.193 38.1722 11.1967 38.137 11.2086 38.1042C11.2233 38.0653 11.2488 38.0317 11.2821 38.0076C11.3154 37.9835 11.3549 37.97 11.3957 37.9688C11.7008 37.9607 12.4384 37.9918 12.9066 38.4278C13.022 38.7054 12.7063 38.7555 12.7063 38.7555Z" fill="black"/>
<path d="M32.2825 41.8797L34.7777 40.8696C34.7353 40.2128 34.5761 39.3381 34.7419 37.6198L31.911 37.0701V39.9623L32.2825 41.8797Z" fill="#FFEDE5"/>
<path d="M39.4021 44.1163C39.4684 44.3213 39.456 44.5444 39.3676 44.7405C39.2827 44.9233 38.3474 45.4609 37.0859 45.3742C36.1504 45.3073 35.2494 44.9861 34.4765 44.444C33.9963 44.119 33.4949 44.0581 32.8714 44.0215C32.2479 43.9849 31.4254 43.6667 31.2888 43.3688C31.1522 43.0709 31.31 42.5564 31.31 42.5564L39.4021 44.1163Z" fill="#263238"/>
<path d="M34.312 40.0973L34.4114 40.0756C34.4655 40.0608 34.5221 40.058 34.5773 40.0675C34.6385 40.0868 34.693 40.124 34.7338 40.1745C34.8573 40.3352 34.9648 40.508 35.0548 40.6904C35.3201 41.1304 35.8747 41.496 36.4809 41.8278C36.8935 42.0539 37.2967 42.234 37.7226 42.4249C38.1484 42.6158 38.7321 42.7458 39.0717 42.9801C39.5665 43.32 39.6315 44.1757 39.0717 44.5129C38.5862 44.8054 37.306 45.1209 35.9635 44.7322C35.2313 44.521 34.4194 43.7235 33.4603 43.649C32.8501 43.6003 31.6946 43.4256 31.302 42.953C31.1574 42.7431 31.3511 42.0769 31.5103 41.5028C31.684 40.8759 31.7477 39.771 31.952 39.8265C31.952 39.8265 31.8963 39.9822 31.9759 40.0661C32.0555 40.1501 32.3354 40.318 32.4176 40.3884C32.5552 40.5316 32.6662 40.6991 32.7453 40.8826C32.7782 40.9655 32.8394 41.0334 32.9177 41.0736C33.0212 41.1128 33.0981 41.0465 33.183 41.0045C33.2978 40.9521 33.4271 40.943 33.5479 40.9788C33.5362 40.8544 33.5145 40.7312 33.4829 40.6105C33.4693 40.5723 33.4661 40.5312 33.4736 40.4913C33.4903 40.4542 33.5175 40.423 33.5518 40.402C33.7816 40.2473 34.0405 40.1435 34.312 40.0973Z" fill="url(#paint3_linear_1_5742)"/>
<path d="M35.9106 41.4894C35.9106 41.4894 35.823 41.2498 35.4609 41.1821C35.1823 41.1293 34.6915 41.3378 34.3864 41.5883C34.3577 41.6125 34.3351 41.6434 34.3208 41.6785C34.3064 41.7135 34.3006 41.7516 34.3039 41.7895C34.3071 41.8273 34.3194 41.8638 34.3395 41.8957C34.3597 41.9277 34.3871 41.9541 34.4195 41.9728C34.4612 41.9971 34.5093 42.0074 34.5569 42.002C34.6046 41.9966 34.6494 41.976 34.6848 41.9431C35.0207 41.6359 35.4599 41.4734 35.9106 41.4894Z" fill="url(#paint4_linear_1_5742)"/>
<path d="M36.7714 41.981C36.7113 41.8944 36.6318 41.8238 36.5394 41.7751C36.4471 41.7263 36.3447 41.7008 36.2408 41.7007C36.2408 41.7007 35.5152 41.7223 35.0655 42.1489C35.0381 42.1724 35.0166 42.2023 35.0029 42.2361C34.9893 42.2698 34.9837 42.3064 34.9869 42.3428C34.99 42.3792 35.0017 42.4143 35.0209 42.4451C35.0401 42.476 35.0663 42.5016 35.0973 42.5199C35.1367 42.5422 35.1819 42.5514 35.2267 42.546C35.2714 42.5407 35.3134 42.5211 35.3467 42.4901C35.5319 42.3021 35.756 42.1587 36.0025 42.0706C36.249 41.9825 36.5118 41.9519 36.7714 41.981Z" fill="url(#paint5_linear_1_5742)"/>
<path d="M37.7227 42.4254C37.6535 42.345 37.5681 42.2809 37.4724 42.2372C37.3768 42.1935 37.273 42.1713 37.1682 42.1721C37.1682 42.1721 36.4916 42.1979 36.0433 42.6244C36.0155 42.6476 35.9937 42.6774 35.9798 42.7112C35.9658 42.7449 35.9601 42.7816 35.9631 42.8181C35.9661 42.8546 35.9777 42.8898 35.997 42.9207C36.0163 42.9516 36.0426 42.9772 36.0738 42.9954C36.1134 43.0177 36.1589 43.0268 36.2038 43.0214C36.2487 43.0161 36.2909 42.9966 36.3245 42.9656C36.5003 42.7707 36.7182 42.6204 36.961 42.5266C37.2037 42.4328 37.4645 42.3981 37.7227 42.4254Z" fill="url(#paint6_linear_1_5742)"/>
<path opacity="0.3" d="M35.9106 41.4894C35.9106 41.4894 35.823 41.2498 35.4609 41.1821C35.1823 41.1293 34.6915 41.3378 34.3864 41.5883C34.3577 41.6125 34.3351 41.6434 34.3208 41.6785C34.3064 41.7135 34.3006 41.7516 34.3039 41.7895C34.3071 41.8273 34.3194 41.8638 34.3395 41.8957C34.3597 41.9277 34.3871 41.9541 34.4195 41.9728C34.4612 41.9971 34.5093 42.0074 34.5569 42.002C34.6046 41.9966 34.6494 41.976 34.6848 41.9431C35.0207 41.6359 35.4599 41.4734 35.9106 41.4894Z" fill="black"/>
<path opacity="0.3" d="M36.7714 41.981C36.7113 41.8944 36.6318 41.8238 36.5394 41.7751C36.4471 41.7263 36.3447 41.7008 36.2408 41.7007C36.2408 41.7007 35.5152 41.7223 35.0655 42.1489C35.0381 42.1724 35.0166 42.2023 35.0029 42.2361C34.9893 42.2698 34.9837 42.3064 34.9869 42.3428C34.99 42.3792 35.0017 42.4143 35.0209 42.4451C35.0401 42.476 35.0663 42.5016 35.0973 42.5199C35.1367 42.5422 35.1819 42.5514 35.2267 42.546C35.2714 42.5407 35.3134 42.5211 35.3467 42.4901C35.5319 42.3021 35.756 42.1587 36.0025 42.0706C36.249 41.9825 36.5118 41.9519 36.7714 41.981Z" fill="black"/>
<path opacity="0.3" d="M37.7227 42.4254C37.6535 42.345 37.5681 42.2809 37.4724 42.2372C37.3768 42.1935 37.273 42.1713 37.1682 42.1721C37.1682 42.1721 36.4916 42.1979 36.0433 42.6244C36.0155 42.6476 35.9937 42.6774 35.9798 42.7112C35.9658 42.7449 35.9601 42.7816 35.9631 42.8181C35.9661 42.8546 35.9777 42.8898 35.997 42.9207C36.0163 42.9516 36.0426 42.9772 36.0738 42.9954C36.1134 43.0177 36.1589 43.0268 36.2038 43.0214C36.2487 43.0161 36.2909 42.9966 36.3245 42.9656C36.5003 42.7707 36.7182 42.6204 36.961 42.5266C37.2037 42.4328 37.4645 42.3981 37.7227 42.4254Z" fill="black"/>
<path d="M33.9884 27.3544C32.0914 26.9198 27.5612 25.953 27.5612 25.953L27.6341 24.7181C25.9958 25.5847 22.5428 25.3396 20.9509 24.0532L20.7002 25.3626C20.0966 26.1002 19.5739 26.9029 19.1414 27.7566C18.778 28.4918 18.1704 29.6387 18.7753 32.3103C19.1308 33.8797 19.6044 38.0109 19.6044 38.0109L14.9614 36.2642C14.9614 36.2642 14.5635 36.3332 14.2265 37.2215C14.0275 37.7469 13.9612 38.2519 14.1628 38.5133C15.8608 39.8822 18.6121 42.1178 21.3926 43.3716C23.2498 44.0974 24.2368 42.5037 24.327 41.9133C24.6759 39.652 25.0778 32.3861 25.0778 32.3861L31.2861 32.1844C31.0805 33.3841 31.9163 38.0718 31.9163 38.0718C31.9163 38.0718 33.4445 38.7489 34.71 38.0556C34.71 38.0556 35.5564 32.661 35.6386 30.8614C35.7222 28.8547 35.823 27.7755 33.9884 27.3544Z" fill="url(#paint7_linear_1_5742)"/>
<path opacity="0.15" d="M31.2861 32.1845C31.2861 31.8609 31.4971 30.7302 32.2147 30.1277C32.2147 30.1277 31.2304 30.3078 30.7794 32.2008L31.2861 32.1845Z" fill="black"/>
<path opacity="0.15" d="M19.6044 38.011C19.6044 38.011 19.7371 39.7943 20.0714 40.6636C20.0714 40.6636 19.2343 39.12 19.1428 37.835L19.6044 38.011Z" fill="black"/>
<path opacity="0.15" d="M27.5597 25.9531L27.6327 24.7195C25.9944 25.5848 22.5427 25.3397 20.9521 24.0547L20.7014 25.3627C20.7147 25.3749 21.7361 26.4527 24.3919 26.5922C27.0477 26.7317 27.5597 25.9531 27.5597 25.9531Z" fill="black"/>
<path opacity="0.15" d="M25.0831 32.3861C25.0611 31.7159 24.9058 31.0572 24.6267 30.4501C24.3475 29.8431 23.9504 29.3003 23.4594 28.8547C23.4594 28.8547 24.8867 29.5318 25.3643 31.6753C25.3643 31.6753 26.4256 31.1702 26.9801 29.6563C26.9801 29.6563 26.8103 31.1702 25.9559 32.0314L28.5308 32.2737L25.0831 32.3861Z" fill="black"/>
<path d="M24.2553 5.00025C23.7103 4.99936 23.1705 5.10814 22.6667 5.32038C22.1629 5.53261 21.705 5.84414 21.3192 6.23713C20.9335 6.63013 20.6274 7.09689 20.4185 7.61072C20.2096 8.12456 20.102 8.67538 20.1018 9.2317C20.1018 9.78813 20.2093 10.3391 20.4181 10.8531C20.6269 11.3671 20.933 11.834 21.3188 12.2271C21.7045 12.6203 22.1625 12.9319 22.6663 13.1442C23.1702 13.3566 23.7102 13.4654 24.2553 13.4645C25.3539 13.4627 26.4068 13.0159 27.1828 12.2223C27.9589 11.4286 28.3945 10.353 28.3942 9.2317C28.3942 8.11062 27.9583 7.03536 27.1823 6.242C26.4063 5.44865 25.3536 5.00204 24.2553 5.00025Z" fill="#263238"/>
<path d="M19.9242 7.57291C20.0742 7.56591 20.2244 7.57453 20.3726 7.59864C20.4229 7.60201 20.4701 7.62419 20.5053 7.66093C20.5257 7.69131 20.5372 7.72701 20.5384 7.76384C20.5727 7.99892 20.5513 8.23896 20.4761 8.46389C20.4177 8.62096 20.236 8.70085 20.1206 8.81459C19.6722 9.25872 19.6364 9.99398 19.8128 10.6047C19.9893 11.2153 20.3434 11.7597 20.5729 12.35C20.8024 12.9404 20.9245 13.6513 20.5995 14.2457C20.4734 14.4732 20.244 14.652 20.2718 14.9228C20.3036 15.2545 20.5875 15.5714 20.7096 15.8706C20.8435 16.2251 20.8891 16.6081 20.8422 16.985C20.8086 17.4537 20.6381 17.9013 20.3527 18.27C20.1346 18.5295 19.8529 18.7254 19.5365 18.8377C19.22 18.9499 18.8801 18.9746 18.5513 18.9091C18.4126 18.8844 18.2814 18.8274 18.1679 18.7426C17.9729 18.5828 17.8946 18.3215 17.7885 18.0899C17.4476 17.3411 16.7272 16.7968 16.5083 16.002C16.2709 15.1557 16.6662 14.2755 17.1517 13.5565C17.3786 13.2207 17.6319 12.8917 17.7434 12.499C17.8933 11.9696 17.7619 11.4063 17.7275 10.8552C17.6945 10.3168 17.7552 9.77683 17.9065 9.26008C18.0153 8.88635 18.1838 8.45576 18.469 8.18766C18.8693 7.81621 19.3839 7.59882 19.9242 7.57291Z" fill="#263238"/>
<path d="M26.8475 6.93652C27.3011 7.21411 27.8596 8.38537 27.7946 10.8362C27.7389 12.9134 27.077 13.4238 26.7453 13.5714C26.4137 13.719 25.7743 13.6242 25.1534 13.5159V14.763C25.1534 14.763 26.0077 15.784 25.9494 16.3567C25.891 16.9295 24.7077 17.0581 23.9065 16.4921C23.1052 15.9261 22.4327 14.8388 22.4327 14.8388L22.4592 11.9709C22.4592 11.9709 22.0891 12.3365 21.4696 11.7814C20.9615 11.3223 20.7917 10.5519 21.1923 10.1457C21.5929 9.73943 22.3292 9.84911 22.6104 10.4395C22.6104 10.4395 23.6 10.4801 24.9226 9.7462C25.4371 9.46514 25.8795 9.06429 26.214 8.57613C26.5484 8.08798 26.7654 7.52627 26.8475 6.93652Z" fill="#FFEDE5"/>
<path d="M25.5237 10.3054C25.5239 10.3567 25.5093 10.407 25.4817 10.4499C25.4542 10.4928 25.4148 10.5265 25.3686 10.5467C25.3224 10.567 25.2713 10.5729 25.2218 10.5637C25.1724 10.5545 25.1266 10.5306 25.0903 10.4951C25.0541 10.4595 25.0288 10.4139 25.0178 10.3638C25.0068 10.3137 25.0105 10.2614 25.0284 10.2134C25.0464 10.1655 25.0777 10.124 25.1186 10.0941C25.1595 10.0642 25.2081 10.0473 25.2584 10.0454C25.3269 10.0454 25.3929 10.0724 25.4423 10.1209C25.4918 10.1693 25.5209 10.2355 25.5237 10.3054Z" fill="#263238"/>
<g style="mix-blend-mode:multiply" opacity="0.5">
<g style="mix-blend-mode:multiply" opacity="0.5">
<path d="M25.582 12.0671L26.175 12.2621C26.1642 12.3028 26.1455 12.3407 26.1199 12.3738C26.0944 12.4069 26.0626 12.4344 26.0265 12.4546C25.9903 12.4748 25.9505 12.4874 25.9095 12.4915C25.8684 12.4957 25.827 12.4914 25.7876 12.4788C25.7076 12.4509 25.6414 12.3923 25.6031 12.3155C25.5647 12.2387 25.5571 12.1496 25.582 12.0671Z" fill="#F28F8F"/>
</g>
</g>
<path d="M27.6261 9.51202L27.1101 9.14372C27.1317 9.10805 27.1603 9.07727 27.194 9.05329C27.2277 9.0293 27.2658 9.0126 27.3061 9.00423C27.3464 8.99586 27.3879 8.99599 27.4281 9.00461C27.4683 9.01323 27.5064 9.03015 27.5399 9.05435C27.6085 9.10526 27.6555 9.18085 27.6715 9.26582C27.6875 9.35079 27.6713 9.43879 27.6261 9.51202Z" fill="#263238"/>
<path d="M27.5041 10.1241C27.5046 10.1755 27.4902 10.2259 27.4628 10.269C27.4354 10.3121 27.3961 10.346 27.3499 10.3664C27.3037 10.3869 27.2526 10.3929 27.2031 10.3839C27.1535 10.3749 27.1076 10.3511 27.0712 10.3156C27.0348 10.2801 27.0095 10.2345 26.9984 10.1844C26.9872 10.1342 26.9908 10.0819 27.0087 10.0338C27.0266 9.9858 27.058 9.9442 27.0989 9.91426C27.1398 9.88431 27.1884 9.86734 27.2388 9.86548C27.3071 9.86541 27.3728 9.89226 27.4223 9.94044C27.4717 9.98862 27.501 10.0544 27.5041 10.1241Z" fill="#263238"/>
<g style="mix-blend-mode:multiply" opacity="0.5">
<g style="mix-blend-mode:multiply" opacity="0.5">
<path d="M26.297 9.96948L26.3315 11.5429L27.1433 11.2897L26.297 9.96948Z" fill="#F28F8F"/>
</g>
</g>
<g style="mix-blend-mode:multiply" opacity="0.5">
<g style="mix-blend-mode:multiply" opacity="0.5">
<path d="M25.1548 13.5162C24.4994 13.4268 23.1543 13.026 22.9474 12.4817C23.0307 12.7568 23.1946 12.9992 23.417 13.1763C23.8176 13.5311 25.1521 13.9373 25.1521 13.9373L25.1548 13.5162Z" fill="#F28F8F"/>
</g>
</g>
<path d="M20.6988 14.7766C19.4147 14.87 18.8854 15.0366 18.1704 16.6561C17.527 18.1117 15.9882 21.8787 15.6035 22.7182C15.2188 23.5577 15.1458 23.8949 15.4708 24.7737C15.7362 25.49 17.9038 29.605 18.1412 30.2048C18.3787 30.8047 18.4835 31.4113 18.8881 32.11C19.2927 32.8087 19.9321 33.4911 20.4375 33.6523C21.187 33.8919 22.162 33.5588 22.1899 33.0971C22.2177 32.6354 21.0902 31.8649 20.7837 30.8399C20.9877 30.9766 21.2024 31.0957 21.4258 31.196C21.7296 31.3233 22.0692 31.2948 22.17 31.1188C22.2708 30.9428 21.967 30.8358 21.6964 30.5609C21.5346 30.3971 21.248 30.0288 20.8819 29.7038C20.6338 29.4844 20.2279 29.4195 20.0448 29.1784C19.9467 29.0498 19.5009 27.9354 19.1653 26.9429C18.7514 25.712 18.2062 24.0736 18.2062 24.0736L20.4375 19.3344C20.4375 19.3344 22.1872 17.5524 20.6988 14.7766Z" fill="#FFEDE5"/>
<path d="M18.1373 30.2047C18.1373 30.2047 18.6507 29.1445 20.0409 29.1783L19.6735 28.3442C19.6735 28.3442 18.3164 28.4417 17.7446 29.3801L18.1373 30.2047Z" fill="#37474F"/>
<path d="M17.9874 29.3043L18.2858 29.7362C18.3075 29.7676 18.335 29.7942 18.3669 29.8145C18.3989 29.8348 18.4344 29.8483 18.4716 29.8543C18.5087 29.8602 18.5467 29.8585 18.5831 29.8491C18.6196 29.8398 18.6538 29.823 18.6838 29.7998L19.2144 29.3936C19.2761 29.3454 19.3175 29.275 19.33 29.1968C19.3426 29.1185 19.3255 29.0383 19.2821 28.9725L19.0048 28.5555C18.984 28.5233 18.9569 28.4957 18.9253 28.4746C18.8937 28.4534 18.8582 28.439 18.821 28.4323C18.7837 28.4256 18.7455 28.4267 18.7087 28.4355C18.6719 28.4444 18.6373 28.4607 18.6069 28.4837L18.0444 28.8899C17.9832 28.9372 17.9428 29.0074 17.9321 29.0851C17.9214 29.1627 17.9413 29.2415 17.9874 29.3043Z" fill="#263238"/>
<path d="M17.8878 29.2937L18.1889 29.7256C18.2106 29.7569 18.2383 29.7834 18.2702 29.8035C18.3021 29.8237 18.3377 29.8372 18.3748 29.8431C18.4118 29.849 18.4497 29.8473 18.4862 29.8381C18.5226 29.8288 18.5568 29.8122 18.5869 29.7892L19.1175 29.383C19.1791 29.3348 19.2205 29.2645 19.2333 29.1864C19.2461 29.1082 19.2294 29.028 19.1865 28.9619L18.9092 28.5449C18.8883 28.5128 18.8611 28.4855 18.8295 28.4644C18.7979 28.4433 18.7624 28.429 18.7253 28.4223C18.6881 28.4156 18.65 28.4167 18.6132 28.4254C18.5764 28.4341 18.5417 28.4503 18.5113 28.4731L17.9488 28.8861C17.8885 28.9325 17.8484 29.0011 17.837 29.0772C17.8256 29.1534 17.8438 29.231 17.8878 29.2937Z" fill="#455A64"/>
<path d="M19.1321 29.1512C19.1254 29.2047 19.0982 29.2534 19.0565 29.2866L18.5259 29.6928C18.5074 29.7078 18.486 29.7186 18.4632 29.7245C18.4403 29.7303 18.4164 29.731 18.3932 29.7266C18.3705 29.7231 18.3487 29.7149 18.3291 29.7025C18.3095 29.6902 18.2925 29.674 18.2791 29.6549L17.9767 29.2216C17.9512 29.1856 17.9398 29.1411 17.9448 29.097C17.9466 29.0702 17.9542 29.0442 17.9671 29.0208C17.9799 28.9974 17.9977 28.9772 18.0191 28.9616L18.5816 28.5554C18.6004 28.5411 18.6219 28.531 18.6447 28.5257C18.6676 28.5203 18.6912 28.5198 18.7142 28.5242C18.737 28.5283 18.7587 28.537 18.778 28.5498C18.7974 28.5626 18.814 28.5792 18.827 28.5987L19.1043 29.0158C19.1303 29.0556 19.1416 29.1036 19.1361 29.1512H19.1321Z" fill="url(#paint8_linear_1_5742)"/>
</g>
</g>
<defs>
<linearGradient id="paint0_linear_1_5742" x1="13.9854" y1="41.8774" x2="7.88014" y2="41.5942" gradientUnits="userSpaceOnUse">
<stop stop-color="#92A3FD"/>
<stop offset="1" stop-color="#9DCEFF"/>
</linearGradient>
<linearGradient id="paint1_linear_1_5742" x1="12.6901" y1="39.6358" x2="10.4214" y2="39.2106" gradientUnits="userSpaceOnUse">
<stop stop-color="#92A3FD"/>
<stop offset="1" stop-color="#9DCEFF"/>
</linearGradient>
<linearGradient id="paint2_linear_1_5742" x1="12.932" y1="38.7555" x2="10.6699" y2="38.3697" gradientUnits="userSpaceOnUse">
<stop stop-color="#92A3FD"/>
<stop offset="1" stop-color="#9DCEFF"/>
</linearGradient>
<linearGradient id="paint3_linear_1_5742" x1="39.4675" y1="44.9131" x2="28.6205" y2="43.5578" gradientUnits="userSpaceOnUse">
<stop stop-color="#92A3FD"/>
<stop offset="1" stop-color="#9DCEFF"/>
</linearGradient>
<linearGradient id="paint4_linear_1_5742" x1="35.9106" y1="42.0034" x2="33.8026" y2="41.6873" gradientUnits="userSpaceOnUse">
<stop stop-color="#92A3FD"/>
<stop offset="1" stop-color="#9DCEFF"/>
</linearGradient>
<linearGradient id="paint5_linear_1_5742" x1="36.7714" y1="42.5475" x2="34.4397" y2="42.1671" gradientUnits="userSpaceOnUse">
<stop stop-color="#92A3FD"/>
<stop offset="1" stop-color="#9DCEFF"/>
</linearGradient>
<linearGradient id="paint6_linear_1_5742" x1="37.7227" y1="43.0229" x2="35.4214" y2="42.6545" gradientUnits="userSpaceOnUse">
<stop stop-color="#92A3FD"/>
<stop offset="1" stop-color="#9DCEFF"/>
</linearGradient>
<linearGradient id="paint7_linear_1_5742" x1="35.6755" y1="43.5575" x2="6.88009" y2="41.0858" gradientUnits="userSpaceOnUse">
<stop stop-color="#92A3FD"/>
<stop offset="1" stop-color="#9DCEFF"/>
</linearGradient>
<linearGradient id="paint8_linear_1_5742" x1="19.1374" y1="29.7295" x2="17.5462" y2="29.6078" gradientUnits="userSpaceOnUse">
<stop stop-color="#92A3FD"/>
<stop offset="1" stop-color="#9DCEFF"/>
</linearGradient>
<clipPath id="clip0_1_5742">
<rect width="32.7556" height="40.3836" fill="white" transform="translate(8.99994 5.00024)"/>
</clipPath>
</defs>
</svg>
