<svg width="18" height="11" viewBox="0 0 18 11" fill="none" xmlns="http://www.w3.org/2000/svg">
<mask id="mask0_1_5817" style="mask-type:luminance" maskUnits="userSpaceOnUse" x="2" y="1" width="15" height="8">
<path fill-rule="evenodd" clip-rule="evenodd" d="M2.25006 1.28906H16.1227V8.23337H2.25006V1.28906Z" fill="white"/>
</mask>
<g mask="url(#mask0_1_5817)">
<path fill-rule="evenodd" clip-rule="evenodd" d="M9.18531 1.8895C6.56406 1.8895 4.73706 2.98551 4.73706 3.96904C4.73706 4.80125 4.30431 5.18593 3.92181 5.52538C3.61506 5.79798 3.37281 6.01334 3.37281 6.48128C3.49806 7.23624 4.43181 7.63293 9.18531 7.63293C13.9126 7.63293 14.8756 7.21863 15.0001 6.45527C14.9978 6.01334 14.7556 5.79798 14.4488 5.52538C14.0663 5.18593 13.6336 4.80125 13.6336 3.96904C13.6336 2.98551 11.8066 1.8895 9.18531 1.8895ZM9.18532 8.23337C5.67832 8.23337 2.50882 8.10128 2.25007 6.5069C2.24782 5.84722 2.62507 5.51177 2.95807 5.21635C3.29482 4.91693 3.61207 4.63473 3.61207 3.96904C3.61207 2.67488 5.85157 1.28906 9.18532 1.28906C12.5191 1.28906 14.7586 2.67488 14.7586 3.96904C14.7586 4.63473 15.0758 4.91693 15.4126 5.21635C15.7456 5.51177 16.1228 5.84722 16.1228 6.48128C15.8611 8.10128 12.6923 8.23337 9.18532 8.23337Z" fill="#1D1617"/>
</g>
<path fill-rule="evenodd" clip-rule="evenodd" d="M9.1487 9.89545H9.1472C8.30645 9.89505 7.5107 9.6973 6.90695 9.33824C6.6992 9.21535 6.71795 9.02521 6.94895 8.91473C7.17995 8.80345 7.53545 8.81345 7.7432 8.93714C8.1317 9.16811 8.63045 9.29501 9.14795 9.29501H9.1487C9.66845 9.29501 10.1695 9.16811 10.5587 8.93674C10.7672 8.81385 11.1227 8.80385 11.353 8.91473C11.584 9.02561 11.6027 9.21575 11.395 9.33864C10.789 9.6977 9.9917 9.89545 9.1487 9.89545Z" fill="#1D1617"/>
<circle cx="12.5" cy="3.38867" r="2.5" fill="#F7F8F8"/>
<circle cx="12.5" cy="3.38867" r="1.5" fill="#FF0000"/>
</svg>
