<svg width="14" height="14" viewBox="0 0 14 14" fill="none" xmlns="http://www.w3.org/2000/svg">
<path d="M6.99999 7.58341C7.32216 7.58341 7.58332 7.32225 7.58332 7.00008C7.58332 6.67792 7.32216 6.41675 6.99999 6.41675C6.67782 6.41675 6.41666 6.67792 6.41666 7.00008C6.41666 7.32225 6.67782 7.58341 6.99999 7.58341Z" fill="#ADA4A5" stroke="#ADA4A5" stroke-width="2" stroke-linecap="round" stroke-linejoin="round"/>
<path d="M6.99999 3.49992C7.32216 3.49992 7.58332 3.23875 7.58332 2.91659C7.58332 2.59442 7.32216 2.33325 6.99999 2.33325C6.67782 2.33325 6.41666 2.59442 6.41666 2.91659C6.41666 3.23875 6.67782 3.49992 6.99999 3.49992Z" fill="#ADA4A5" stroke="#ADA4A5" stroke-width="2" stroke-linecap="round" stroke-linejoin="round"/>
<path d="M6.99999 11.6667C7.32216 11.6667 7.58332 11.4055 7.58332 11.0833C7.58332 10.7612 7.32216 10.5 6.99999 10.5C6.67782 10.5 6.41666 10.7612 6.41666 11.0833C6.41666 11.4055 6.67782 11.6667 6.99999 11.6667Z" fill="#ADA4A5" stroke="#ADA4A5" stroke-width="2" stroke-linecap="round" stroke-linejoin="round"/>
</svg>
