<svg width="26" height="17" viewBox="0 0 26 17" fill="none" xmlns="http://www.w3.org/2000/svg">
<path fill-rule="evenodd" clip-rule="evenodd" d="M23.9834 13.8977C23.9834 15.0193 18.8854 16.249 13.4781 16.249C8.07078 16.249 3.64963 14.2999 3.64963 13.1783C3.64963 12.0567 8.78762 11.8679 14.1936 11.8679C19.5995 11.8679 23.9834 12.7761 23.9834 13.8977Z" fill="#E2CAB3"/>
<path fill-rule="evenodd" clip-rule="evenodd" d="M24.8202 15.0427C24.8354 15.6418 23.533 16.1615 21.9101 16.2026C20.2872 16.2436 18.9585 15.7922 18.9433 15.1918C18.9281 14.5913 20.2306 14.0729 21.8534 14.0319C23.4763 13.9909 24.805 14.4422 24.8202 15.0427Z" fill="#E2CAB3"/>
<path fill-rule="evenodd" clip-rule="evenodd" d="M1.19103 10.7791C0.326411 12.8089 1.37887 13.8717 2.78077 14.0468C3.33324 14.1151 4.16195 13.7363 4.77519 13.4996C5.27415 13.2802 5.74785 13.0082 6.18814 12.6885C6.39669 12.4765 6.64254 12.1879 6.69227 11.8679C6.69895 11.7442 6.67225 11.621 6.61492 11.5109C6.63051 11.4647 6.65335 11.4214 6.6826 11.3823C6.75718 11.2455 6.55553 11.1402 6.65636 10.987C6.81657 10.7422 6.60525 10.4782 6.50166 10.2607C6.46713 10.1909 5.57627 9.40719 5.53484 9.33196C4.79176 8.55369 4.59149 8.18712 3.56942 8.02708C2.2863 7.82465 1.04186 8.28833 1.19103 10.7791Z" fill="#5F825C"/>
<g style="mix-blend-mode:multiply" opacity="0.4">
<path fill-rule="evenodd" clip-rule="evenodd" d="M1.65517 10.0295C1.80157 10.0473 1.8734 10.4399 1.81262 10.9104C1.75185 11.3809 1.58611 11.742 1.43832 11.7242C1.29054 11.7065 1.22148 11.3139 1.28087 10.8434C1.34026 10.3729 1.50048 10.0104 1.65517 10.0295Z" fill="#5F825C"/>
</g>
<path fill-rule="evenodd" clip-rule="evenodd" d="M1.79326 12.2303C1.47973 12.3671 1.50873 12.7679 1.6358 13.0278C1.63892 13.0319 1.64126 13.0365 1.64271 13.0414C1.67255 13.1013 1.70965 13.1573 1.7532 13.2083C1.90712 13.4024 2.11953 13.5428 2.35954 13.6091C2.66064 13.6843 3.00593 13.6337 3.17996 13.3971C3.18422 13.3898 3.19114 13.3844 3.1993 13.382V13.3519C3.16062 13.1987 2.92306 13.1686 2.79599 13.1495C2.51976 13.1071 2.43827 12.8664 2.35402 12.6434C2.26976 12.4205 2.06949 12.1045 1.79326 12.2303Z" fill="#8DB54F"/>
<g style="mix-blend-mode:multiply" opacity="0.4">
<path fill-rule="evenodd" clip-rule="evenodd" d="M4.63015 9.21581C4.37463 9.35259 4.61219 9.66171 4.73512 9.80806C5.01135 10.1473 5.38979 10.3907 5.62045 10.7765C5.85111 11.1622 5.55001 11.7599 5.91879 12.0854C5.93656 12.1012 5.95732 12.1132 5.97985 12.1209C6.00238 12.1286 6.02624 12.1318 6.05002 12.1303C6.0738 12.1287 6.09704 12.1225 6.11838 12.112C6.13972 12.1015 6.15873 12.0869 6.1743 12.069C6.19046 12.0432 6.20257 12.015 6.21022 11.9856C6.2551 11.9288 6.29011 11.865 6.3138 11.7968C6.37594 11.5828 6.36772 11.3548 6.29032 11.1458C6.23231 10.9584 6.36214 10.7765 6.30552 10.5891C6.27957 10.5192 6.23802 10.4561 6.18397 10.4044C6.12732 10.3393 6.06231 10.2818 5.99061 10.2334C5.85692 10.1234 5.7335 10.0016 5.62183 9.86961C5.48807 9.71262 5.34115 9.56712 5.18262 9.43465C5.01549 9.27736 4.79865 9.12416 4.63015 9.21581Z" fill="#5F825C"/>
</g>
<path fill-rule="evenodd" clip-rule="evenodd" d="M1.4259 10.9051C1.28778 10.8819 1.20077 10.8271 0.754645 10.7177C0.308524 10.6083 0.0820103 10.5837 0.0129513 10.5426C-0.0561077 10.5016 0.137257 10.2869 0.137257 10.2869C0.137257 10.2869 0.471503 10.4141 0.746358 10.5153C1.02121 10.6165 1.52396 10.7505 1.52396 10.7505C1.52396 10.7505 1.60269 10.7943 1.57092 10.8654C1.53915 10.9366 1.4259 10.9051 1.4259 10.9051Z" fill="#300D33"/>
<path fill-rule="evenodd" clip-rule="evenodd" d="M24.859 6.95059C24.4847 7.03676 24.1684 7.26108 23.779 7.28023C23.3646 7.30074 22.9502 7.12977 22.5456 7.05181C21.6658 6.8822 20.7652 6.78782 19.8757 6.69071C18.0802 6.49374 16.2612 6.40894 14.4588 6.20377C12.6563 5.9986 10.8677 5.76471 9.06387 5.77292C8.19487 5.77508 7.32761 5.85012 6.4714 5.99723C5.76562 6.11897 5.0474 6.26122 4.45626 6.68113C4.00128 7.01256 3.65841 7.47276 3.47286 8.00106C3.23253 8.64392 4.50184 12.5804 4.69382 12.839C6.36229 15.0274 9.16332 15.5062 13.7723 15.4145C18.6976 15.316 20.6009 14.773 21.9959 13.5529C22.7458 12.8978 23.377 11.2126 23.4903 10.883C23.6823 10.3017 23.895 9.72858 24.0939 9.15001C24.2196 8.78344 24.3508 8.42097 24.5082 8.06671C24.6748 7.7339 24.8134 7.38804 24.9226 7.03266C24.9257 7.02298 24.9264 7.01269 24.9247 7.00268C24.9229 6.99266 24.9187 6.98322 24.9125 6.97515C24.9063 6.96709 24.8981 6.96064 24.8888 6.95636C24.8795 6.95208 24.8693 6.9501 24.859 6.95059Z" fill="#DA840D"/>
<path fill-rule="evenodd" clip-rule="evenodd" d="M24.1131 7.22012C23.4846 7.65782 22.58 7.6756 21.8438 7.81922C20.0262 8.17485 18.2141 8.41968 16.3591 8.37591C14.5443 8.33488 12.728 8.12287 10.92 7.97515C9.07203 7.82469 7.21987 7.71663 5.36632 7.80007C4.95685 7.8149 4.55065 7.87827 4.15641 7.98883C3.95476 8.04627 3.65366 8.12561 3.55284 8.33078C3.52796 8.38402 3.51433 8.44174 3.51278 8.50038V8.50996C3.42162 8.81361 3.52797 9.06802 3.63294 9.33747C3.6578 9.451 3.68543 9.56453 3.71167 9.67806C3.66471 9.67806 3.6578 9.74918 3.71167 9.75055H3.72686C3.73257 9.75695 3.73958 9.76208 3.74744 9.76559C3.7553 9.76911 3.76382 9.77092 3.77244 9.77092C3.78106 9.77092 3.78959 9.76911 3.79745 9.76559C3.8053 9.76208 3.81232 9.75695 3.81802 9.75055C4.14398 9.75055 4.46718 9.69037 4.79452 9.68216C5.28621 9.66848 5.70333 9.91742 6.13288 10.1226C6.90358 10.4864 7.63146 10.9118 8.41182 11.2346C8.75999 11.3789 9.11818 11.4982 9.48362 11.5916C9.84799 11.6692 10.2171 11.7231 10.5886 11.753C10.9836 11.8036 11.3745 11.8898 11.7681 11.9431C12.2089 11.9949 12.6535 12.009 13.0968 11.9855C14.8574 11.9548 16.6126 11.7833 18.3453 11.4726C19.9198 11.1799 21.4944 10.7395 22.8659 9.89827C23.4082 9.57177 23.8675 9.12627 24.2084 8.59613C24.3658 8.35129 24.4998 8.08731 24.6462 7.83563C24.7539 7.64824 24.8838 7.42529 24.8644 7.20781C24.8327 6.73456 24.3064 7.08745 24.1131 7.22012Z" fill="#C66720"/>
<path opacity="0.4" fill-rule="evenodd" clip-rule="evenodd" d="M13.5223 14.4954C6.68543 15.4529 4.63853 12.7269 4.70068 12.8076C6.36914 14.9961 9.17156 15.4748 13.7792 15.3831C18.7045 15.286 20.7058 14.7102 22.1022 13.4901C22.8093 12.8705 23.5925 10.5849 23.7485 10.1404C20.3273 12.928 19.3509 13.6748 13.5223 14.4954Z" fill="#C66720"/>
<path fill-rule="evenodd" clip-rule="evenodd" d="M25.9942 4.72117C25.9155 4.24108 25.1655 4.17406 24.7954 4.03728C24.468 3.91691 24.2429 3.62694 23.9763 3.40946C23.6887 3.17396 23.3687 2.98008 23.0261 2.83361C22.2457 2.49987 21.464 2.23315 20.7527 1.76126C20.098 1.32493 19.2941 1.26885 18.5428 1.14712C18.0783 1.07531 17.6237 0.950937 17.1878 0.776448C16.8007 0.59626 16.3917 0.466163 15.971 0.389361C15.5373 0.331914 15.0912 0.430395 14.6575 0.448176C14.1769 0.467326 13.7349 0.311397 13.2832 0.174617C12.9146 0.0423829 12.523 -0.0157412 12.1313 0.00364233C11.7667 0.0337339 11.4408 0.225225 11.1341 0.413982C11.1264 0.418214 11.12 0.424342 11.1154 0.43177C11.1108 0.439198 11.1082 0.447676 11.1079 0.456383C10.7612 0.635565 10.4283 0.835263 10.0803 1.01581C9.78986 1.17445 9.47834 1.29186 9.1549 1.3646C8.7585 1.44667 8.38558 1.38101 7.99195 1.33041C7.30136 1.2415 6.64806 1.22509 5.99338 1.47539C5.21439 1.77357 4.59424 2.38087 3.82216 2.70641C3.15782 2.97997 2.5791 3.30414 2.16475 3.91007C1.99228 4.16438 1.87473 4.45123 1.81945 4.75263C1.76835 5.0768 1.84708 5.37088 1.91614 5.68821C2.00729 6.09855 1.92581 6.42682 1.80702 6.82211C1.70581 7.08276 1.71326 7.37254 1.82774 7.62774C1.93547 7.83565 2.16475 7.96969 2.36502 8.07638C2.56529 8.18307 3.07633 8.29796 3.11914 8.5469C3.30146 9.60284 4.50032 9.1077 5.20611 9.36758C5.55278 9.49752 5.87322 9.69449 6.22542 9.82169C6.6301 9.96805 7.05412 10.0775 7.46848 10.1883C8.29719 10.4098 9.09551 10.7053 9.90073 11.0089C10.2557 11.1457 10.5913 11.3153 10.9711 11.3837C11.351 11.4521 11.7432 11.3906 12.1189 11.3577C12.8993 11.288 15.3674 11.4945 15.6948 11.329C16.1188 11.1225 16.5124 11.1416 16.971 11.1799C17.3287 11.21 17.6381 10.9474 17.9972 10.9187C18.41 10.8784 18.8171 10.7935 19.2113 10.6656C19.5628 10.5311 19.921 10.4142 20.2844 10.3155C20.6988 10.2238 21.0607 9.92701 21.4792 9.87093C22.2927 9.76014 22.8893 9.30877 23.5192 8.7849C24.091 8.31028 25.4432 6.67439 25.5605 6.35022C25.678 6.02605 25.765 5.66632 25.8603 5.33121C25.9128 5.14382 26.0274 4.92087 25.9942 4.72117Z" fill="#F0A508"/>
<g opacity="0.5">
<path opacity="0.5" fill-rule="evenodd" clip-rule="evenodd" d="M13.2335 2.3098C13.1189 2.45889 12.9808 2.49992 12.9932 3.42729C13.0056 4.35465 13.0954 4.70481 12.7349 5.40786C12.3744 6.1109 11.6755 6.79344 11.4283 7.54162C11.1811 8.2898 10.8689 9.51809 11.1852 9.99545C11.5015 10.4728 12.6534 10.7081 14.2238 10.7505C15.7942 10.7929 17.5165 10.5385 18.4848 10.2403C19.453 9.9421 20.0123 9.819 20.2319 9.55639C20.4515 9.29377 19.3563 7.05058 18.5897 6.17519C17.8232 5.2998 17.4558 5.00983 16.5912 4.2849C15.7265 3.55996 15.3481 3.27136 14.9213 2.68594C14.4945 2.10052 14.384 2.06906 13.9351 2.0759C13.6816 2.07519 13.435 2.15741 13.2335 2.3098Z" fill="#E2CAB3"/>
<path opacity="0.5" fill-rule="evenodd" clip-rule="evenodd" d="M4.50997 8.20369C5.11907 6.81264 5.92292 6.17935 6.14805 5.86475C6.7682 4.99894 7.1356 4.62006 7.9574 4.49696C8.7792 4.37385 8.32893 4.37796 9.26261 4.24802C10.1963 4.11808 10.9794 3.91701 11.6106 3.42734C12.2418 2.93767 12.5678 2.55605 12.9034 2.43705C13.239 2.31806 13.757 2.0527 13.3896 2.42748C13.0222 2.80226 13.5125 2.94451 12.8219 3.96078C12.1313 4.97705 11.8026 5.50229 11.5568 6.28603C11.3109 7.06978 11.0568 9.5154 10.4946 9.70826C9.93248 9.90112 8.59136 9.93532 7.34553 9.4771C6.37882 9.1013 5.43237 8.67626 4.50997 8.20369Z" fill="#E2CAB3"/>
<path opacity="0.5" fill-rule="evenodd" clip-rule="evenodd" d="M21.3466 8.82864C21.3466 8.82864 22.5012 8.47164 23.1642 7.90127C23.8272 7.3309 24.4901 6.79882 24.7001 6.01508C24.91 5.23133 25.1476 5.03573 24.8907 4.80321C24.6338 4.57068 23.2595 3.33556 22.1283 2.72689C20.9971 2.11822 19.5593 1.73387 18.2803 1.46715C17.0014 1.20043 16.3232 1.35636 15.6561 1.33037C14.989 1.30438 13.9324 2.06625 13.9476 2.07445C14.3169 2.42622 14.7278 2.73254 15.1713 2.98677C15.7707 3.29863 17.1685 3.8266 17.8508 4.21779C18.5331 4.60898 19.0745 5.47343 19.232 5.8783C19.3894 6.28317 19.6104 6.409 19.8355 7.18454C20.0607 7.96008 20.685 9.20888 20.685 9.20888L21.3466 8.82864Z" fill="#E2CAB3"/>
<path opacity="0.5" fill-rule="evenodd" clip-rule="evenodd" d="M2.62887 4.11662C2.62887 4.11662 2.09573 5.53502 2.37197 6.21755C2.56354 6.66525 2.8245 7.08059 3.14543 7.44857C3.14543 7.44857 3.83602 8.10238 4.307 7.42532C4.77799 6.74826 5.79868 5.16709 6.60943 4.55705C7.42018 3.94701 8.42982 3.8157 9.17842 3.7268C9.92702 3.63789 11.6853 3.33834 12.1714 2.94578C12.6576 2.55323 13.9476 2.0745 13.9476 2.0745C13.3895 1.82076 12.8082 1.6206 12.2115 1.47677C11.3082 1.2716 9.86349 1.82009 8.69087 1.54653C7.51824 1.27297 6.37463 1.88985 5.07632 2.54639C4.21418 2.99533 3.39499 3.5209 2.62887 4.11662Z" fill="#E2CAB3"/>
<path opacity="0.5" fill-rule="evenodd" clip-rule="evenodd" d="M10.3635 1.21278C10.3635 1.21278 11.5775 0.0788792 12.4021 0.0993962C13.4449 0.126752 13.7833 0.353806 14.2819 0.509735C14.8496 0.684813 15.0761 0.754571 14.9297 0.980258C14.7833 1.20594 14.0927 2.21128 14.0927 2.21128C14.0927 2.21128 12.4353 1.40564 11.8275 1.31263C11.3428 1.2426 10.8534 1.20922 10.3635 1.21278Z" fill="#E2CAB3"/>
</g>
<path opacity="0.4" fill-rule="evenodd" clip-rule="evenodd" d="M22.3038 2.46842C21.9765 2.33164 21.6477 2.21812 21.3259 2.06629C20.949 1.87465 20.5617 1.70387 20.1657 1.55473C19.8085 1.44618 19.4418 1.37063 19.0705 1.32905C18.2307 1.19227 17.46 0.848951 16.6548 0.602747C16.1931 0.462084 15.7106 0.400108 15.228 0.419462C14.8081 0.446818 14.3869 0.446818 13.967 0.419462C13.5526 0.375693 13.188 0.185569 12.7847 0.0802487C12.2944 -0.0483242 11.8869 0.0802487 11.4519 0.311406C10.8096 0.641046 10.1688 1.04318 9.47264 1.25382C9.10086 1.3739 8.71177 1.43304 8.32073 1.4289C7.90638 1.41522 7.51136 1.33315 7.10391 1.3058C6.65505 1.25833 6.20189 1.34002 5.7987 1.54106C5.49269 1.70167 5.20432 1.89327 4.93823 2.1128C4.93684 2.13694 4.93684 2.16114 4.93823 2.18529C4.8579 2.41767 4.82917 2.66447 4.85397 2.90885C4.86612 3.15822 4.93207 3.40212 5.04738 3.62414C5.16269 3.84615 5.32469 4.04113 5.52246 4.19595C5.80975 4.43668 6.11085 4.62134 6.35117 4.90994C6.5915 5.19855 6.76553 5.49946 7.04176 5.73062C7.49203 6.11087 8.09008 6.14096 8.65636 6.14096C8.95469 6.14096 9.25165 6.12591 9.5486 6.14096C9.95618 6.18346 10.357 6.27533 10.7419 6.41452C11.5375 6.66072 12.3179 7.0013 13.1397 7.16134C13.9615 7.32137 14.7764 7.12851 15.5747 6.9165C16.373 6.70449 17.1603 6.56224 17.942 6.35707C18.6488 6.185 19.3196 5.8915 19.924 5.48989C20.569 5.02586 21.1523 4.48312 21.6602 3.87452C21.8549 3.6502 22.04 3.41767 22.232 3.19062C22.4027 3.01952 22.5169 2.80103 22.5593 2.56417C22.4726 2.53653 22.3873 2.50457 22.3038 2.46842Z" fill="#E2CAB3"/>
<path fill-rule="evenodd" clip-rule="evenodd" d="M11.2833 3.4082C11.2198 3.42188 11.1562 3.43282 11.0969 3.44103H11.0775C10.6438 3.52447 10.2143 3.62842 9.76816 3.59422C9.46707 3.57234 8.2903 3.6038 8.56654 4.14134C8.5698 4.15064 8.5698 4.16076 8.56654 4.17007C8.80963 4.32326 9.34967 4.26034 9.53336 4.24666C9.68911 4.23612 9.8438 4.21372 9.99606 4.17964C10.4293 4.0095 10.8413 3.79058 11.2239 3.5272C11.2487 3.49015 11.2686 3.45017 11.2833 3.4082Z" fill="#C66720"/>
<path fill-rule="evenodd" clip-rule="evenodd" d="M12.9961 4.51059C13.0246 4.2242 13.0144 3.93532 12.9657 3.65161C12.7812 4.08567 12.5447 4.49622 12.2613 4.87442C12.0955 5.08096 11.8759 5.26014 11.742 5.48993C11.6701 5.61303 11.5707 5.79632 11.6232 5.94677C11.706 6.1834 11.8524 6.18204 12.0085 6.15058C12.2765 5.98644 12.5223 5.60346 12.6549 5.40649C12.7776 5.22404 12.8773 5.02745 12.9519 4.82108C12.9671 4.71849 12.9809 4.61591 12.9961 4.51059Z" fill="#C66720"/>
<path fill-rule="evenodd" clip-rule="evenodd" d="M17.4116 3.68989C17.0878 3.55928 16.7572 3.4456 16.4213 3.34931C16.2162 3.2965 16.0158 3.22743 15.8219 3.14278C15.673 3.05428 15.5048 3.00267 15.3316 2.99232C15.3211 2.99163 15.3106 2.99365 15.3012 2.99816C15.2917 3.00267 15.2836 3.00953 15.2776 3.01807C15.2716 3.02661 15.268 3.03654 15.267 3.04689C15.2661 3.05723 15.2679 3.06765 15.2722 3.07712C15.2859 3.12065 15.3129 3.15888 15.3495 3.18655C15.5555 3.47179 15.7836 3.7407 16.0318 3.99081C16.2542 4.23975 16.4462 4.50784 16.6948 4.739C17.0318 5.06043 17.6409 5.25602 17.9862 4.81286C18.3674 4.31908 17.8481 3.87181 17.4116 3.68989Z" fill="#C66720"/>
<path fill-rule="evenodd" clip-rule="evenodd" d="M16.0194 1.26616C15.902 1.01586 15.5208 1.02269 15.268 1.08151C15.2475 1.08416 15.2272 1.08828 15.2073 1.09382C14.8575 1.27202 14.5861 1.57144 14.4449 1.93502C14.8592 1.81328 15.1645 1.52468 15.6023 1.47407C15.6727 1.46586 16.0995 1.4344 16.0194 1.26616Z" fill="#C66720"/>
<path fill-rule="evenodd" clip-rule="evenodd" d="M10.1742 1.72033C10.2297 1.73784 10.2873 1.74796 10.3455 1.75042C10.4823 1.72723 10.6211 1.71806 10.7598 1.72306C10.8137 1.72038 10.8676 1.72038 10.9214 1.72306C11.1023 1.73024 11.2826 1.7476 11.4615 1.77504L11.5319 1.79419C11.6303 1.8045 11.7289 1.77763 11.8081 1.71896C11.4035 1.54251 10.2888 1.12397 10.1369 1.66425C10.1348 1.67653 10.1375 1.68915 10.1444 1.69956C10.1513 1.70996 10.162 1.71739 10.1742 1.72033Z" fill="#C66720"/>
<path fill-rule="evenodd" clip-rule="evenodd" d="M2.59857 7.63999C2.56623 7.71115 2.54303 7.78605 2.52952 7.86294C2.50884 7.92015 2.49675 7.98006 2.49361 8.04075C2.49426 8.04457 2.49581 8.04818 2.49814 8.0513C2.50046 8.05441 2.5035 8.05694 2.507 8.05867C2.5105 8.0604 2.51436 8.06129 2.51828 8.06127C2.52219 8.06125 2.52604 8.06031 2.52952 8.05853C2.57095 8.03528 2.57233 7.96552 2.57924 7.92175C2.59176 7.8288 2.61303 7.73722 2.64277 7.64819C2.65382 7.62768 2.61101 7.614 2.59857 7.63999Z" fill="#C66720"/>
<path fill-rule="evenodd" clip-rule="evenodd" d="M2.85812 7.85214C2.82286 7.91988 2.79729 7.99216 2.78216 8.06689C2.77111 8.10655 2.73934 8.16947 2.75177 8.20367C2.75256 8.2081 2.7547 8.21219 2.75791 8.21537C2.76113 8.21855 2.76525 8.22067 2.76973 8.22145C2.82221 8.22145 2.82774 8.15306 2.83602 8.11613C2.85536 8.03543 2.87194 7.95199 2.89956 7.87266C2.90923 7.84941 2.87194 7.82752 2.85812 7.85214Z" fill="#C66720"/>
<path fill-rule="evenodd" clip-rule="evenodd" d="M4.10685 8.785C4.09442 8.92178 4.05022 9.05855 4.0516 9.20354C4.0516 9.24457 4.11651 9.25141 4.1179 9.20354C4.13877 9.06254 4.15214 8.92055 4.15795 8.77816C4.15657 8.7508 4.10961 8.75764 4.10685 8.785Z" fill="#C66720"/>
<path fill-rule="evenodd" clip-rule="evenodd" d="M4.44932 8.85596C4.40416 8.96379 4.38251 9.07985 4.38578 9.19654C4.38578 9.24031 4.45622 9.24851 4.4576 9.19654C4.46168 9.08362 4.47414 8.97116 4.4949 8.86006C4.50042 8.83818 4.45898 8.83134 4.44932 8.85596Z" fill="#C66720"/>
<path fill-rule="evenodd" clip-rule="evenodd" d="M10.0307 10.7231C10.0099 10.7746 9.99509 10.8283 9.98654 10.8831C9.97353 10.9322 9.96795 10.9829 9.96996 11.0335C9.97178 11.039 9.9753 11.0438 9.98001 11.0472C9.98472 11.0505 9.99039 11.0524 9.99621 11.0524C10.002 11.0524 10.0077 11.0505 10.0124 11.0472C10.0171 11.0438 10.0206 11.039 10.0224 11.0335C10.0341 10.9889 10.0402 10.9429 10.0404 10.8968C10.0487 10.8393 10.0515 10.7819 10.0625 10.7244C10.0653 10.7121 10.0376 10.708 10.0307 10.7231Z" fill="#C66720"/>
<path fill-rule="evenodd" clip-rule="evenodd" d="M10.4229 10.771C10.4013 10.8401 10.3865 10.9111 10.3787 10.983C10.3632 11.0433 10.3586 11.1058 10.3649 11.1677C10.3671 11.173 10.3708 11.1776 10.3756 11.1808C10.3804 11.184 10.3861 11.1857 10.3919 11.1857C10.3977 11.1857 10.4033 11.184 10.4081 11.1808C10.4129 11.1776 10.4166 11.173 10.4188 11.1677C10.4335 11.1138 10.4401 11.058 10.4381 11.0022C10.4381 10.9256 10.4506 10.849 10.4575 10.7738C10.4567 10.7699 10.4548 10.7664 10.4518 10.7638C10.4489 10.7612 10.4452 10.7596 10.4413 10.7593C10.4373 10.759 10.4334 10.76 10.4301 10.7621C10.4268 10.7642 10.4243 10.7673 10.4229 10.771Z" fill="#C66720"/>
<path fill-rule="evenodd" clip-rule="evenodd" d="M11.9823 11.0049C11.9823 10.983 11.9561 10.9638 11.945 10.9843C11.9095 11.052 11.8905 11.1269 11.8898 11.2032C11.8898 11.2415 11.8801 11.34 11.9285 11.3495C11.9315 11.3506 11.9348 11.3511 11.9381 11.3509C11.9413 11.3508 11.9445 11.3499 11.9475 11.3485C11.9504 11.3472 11.9531 11.3452 11.9553 11.3428C11.9575 11.3404 11.9591 11.3376 11.9602 11.3345C11.9625 11.2919 11.9592 11.2491 11.9506 11.2073C11.95 11.1386 11.9607 11.0702 11.9823 11.0049Z" fill="#C66720"/>
<path fill-rule="evenodd" clip-rule="evenodd" d="M12.3704 10.9913C12.3694 10.9882 12.3675 10.9855 12.3649 10.9836C12.3622 10.9817 12.3591 10.9807 12.3559 10.9807C12.3526 10.9807 12.3495 10.9817 12.3469 10.9836C12.3442 10.9855 12.3423 10.9882 12.3414 10.9913C12.3108 11.1082 12.2987 11.2291 12.3054 11.3496C12.3054 11.3866 12.3648 11.3907 12.3634 11.3496C12.357 11.2302 12.3593 11.1104 12.3704 10.9913Z" fill="#C66720"/>
<path fill-rule="evenodd" clip-rule="evenodd" d="M12.7957 11.0337C12.7957 11.0289 12.7939 11.0244 12.7905 11.0211C12.7871 11.0177 12.7826 11.0159 12.7778 11.0159C12.773 11.0159 12.7685 11.0177 12.7651 11.0211C12.7617 11.0244 12.7598 11.0289 12.7598 11.0337C12.7543 11.0884 12.7502 11.1431 12.7474 11.1978C12.7474 11.2375 12.7198 11.2894 12.7474 11.3236C12.7496 11.3253 12.7523 11.3262 12.755 11.3262C12.7578 11.3262 12.7604 11.3253 12.7626 11.3236C12.8096 11.3236 12.8068 11.2484 12.8096 11.2128C12.8121 11.1528 12.8074 11.0926 12.7957 11.0337Z" fill="#C66720"/>
<path fill-rule="evenodd" clip-rule="evenodd" d="M20.3618 10.1786C20.3618 10.1868 20.3618 10.1649 20.3618 10.1622C20.3535 10.1426 20.3466 10.1225 20.3411 10.102C20.3273 10.0487 20.3245 9.99121 20.308 9.93786C20.308 9.92282 20.2776 9.91461 20.2734 9.93786C20.2693 9.96112 20.2734 10.262 20.3591 10.2114C20.3621 10.21 20.3647 10.2078 20.3666 10.205C20.3685 10.2023 20.3696 10.1991 20.3699 10.1958C20.3702 10.1925 20.3696 10.1892 20.3682 10.1861C20.3668 10.1831 20.3646 10.1805 20.3618 10.1786Z" fill="#C66720"/>
<path fill-rule="evenodd" clip-rule="evenodd" d="M20.8536 10.0557C20.8262 9.97189 20.793 9.89009 20.7541 9.81085C20.7523 9.80523 20.7483 9.80055 20.743 9.79786C20.7377 9.79517 20.7315 9.79467 20.7258 9.79649C20.7201 9.7983 20.7154 9.80227 20.7127 9.80753C20.71 9.81279 20.7095 9.8189 20.7113 9.82453C20.7319 9.91288 20.7587 9.99972 20.7914 10.0844C20.8066 10.1254 20.8702 10.0967 20.8536 10.0557Z" fill="#C66720"/>
<path fill-rule="evenodd" clip-rule="evenodd" d="M21.3259 9.81346C21.2779 9.74501 21.2454 9.66709 21.2306 9.58504C21.2294 9.58 21.2264 9.57552 21.2223 9.57232C21.2182 9.56912 21.2131 9.56738 21.2078 9.56738C21.2026 9.56738 21.1975 9.56912 21.1934 9.57232C21.1892 9.57552 21.1863 9.58 21.185 9.58504C21.1787 9.68311 21.2081 9.78018 21.2679 9.8586C21.2942 9.90237 21.3535 9.85313 21.3259 9.81346Z" fill="#C66720"/>
<path fill-rule="evenodd" clip-rule="evenodd" d="M21.9144 9.74653C21.8679 9.70791 21.8299 9.66036 21.8026 9.60675C21.7753 9.55314 21.7593 9.49459 21.7555 9.43467C21.7558 9.43138 21.7551 9.42807 21.7535 9.42518C21.7519 9.42229 21.7494 9.41996 21.7464 9.41848C21.7434 9.417 21.7401 9.41645 21.7368 9.4169C21.7335 9.41735 21.7304 9.41877 21.7279 9.42099C21.6064 9.50579 21.7887 9.72464 21.8563 9.78893C21.8909 9.82722 21.9489 9.78072 21.9144 9.74653Z" fill="#C66720"/>
<path fill-rule="evenodd" clip-rule="evenodd" d="M22.5801 9.4347C22.5071 9.31218 22.4264 9.19432 22.3384 9.08181C22.3288 9.0654 22.297 9.07087 22.3039 9.09275C22.3467 9.22953 22.4682 9.32664 22.5276 9.45932C22.5428 9.49625 22.5953 9.47163 22.5801 9.4347Z" fill="#C66720"/>
<path fill-rule="evenodd" clip-rule="evenodd" d="M23.1297 9.01202C23.1172 8.98603 23.0841 8.97098 23.062 8.95457L22.9529 8.87524C22.9252 8.85472 22.8962 8.83557 22.8672 8.81643C22.8382 8.79728 22.8368 8.80822 22.8244 8.80138C22.812 8.79454 22.8134 8.80138 22.8175 8.80138C22.8217 8.80138 22.8244 8.82326 22.8341 8.83284C22.8585 8.85795 22.8843 8.88169 22.9114 8.90396C22.946 8.93406 22.9819 8.96141 23.0178 8.98877C23.0537 9.01612 23.073 9.03937 23.1048 9.03937C23.1083 9.0394 23.1118 9.03868 23.115 9.03728C23.1182 9.03587 23.1211 9.03381 23.1234 9.03122C23.1258 9.02864 23.1275 9.02559 23.1286 9.02228C23.1297 9.01897 23.13 9.01547 23.1297 9.01202Z" fill="#C66720"/>
<path fill-rule="evenodd" clip-rule="evenodd" d="M23.598 8.66992C23.5954 8.66196 23.5907 8.65484 23.5844 8.64931C23.5781 8.64377 23.5704 8.64002 23.5621 8.63846C23.5363 8.62663 23.5126 8.61095 23.4917 8.59195C23.443 8.54971 23.401 8.50036 23.3674 8.4456C23.3522 8.42235 23.3163 8.4456 23.3273 8.47159C23.3568 8.537 23.3996 8.59567 23.453 8.64393C23.4861 8.67402 23.5483 8.72463 23.5911 8.69591C23.5948 8.69281 23.5975 8.68865 23.5987 8.684C23.6 8.67934 23.5997 8.67442 23.598 8.66992Z" fill="#C66720"/>
<path fill-rule="evenodd" clip-rule="evenodd" d="M25.1574 6.911C25.1511 6.9036 25.1433 6.8976 25.1345 6.89336C25.1257 6.88912 25.1161 6.88674 25.1063 6.88638C25.0756 6.88112 25.0464 6.86946 25.0207 6.85218C24.9657 6.81457 24.9245 6.76034 24.9033 6.69762C24.9033 6.6771 24.8674 6.68941 24.8687 6.70856C24.8773 6.78238 24.9144 6.85004 24.9723 6.89732C25.0124 6.93015 25.1104 6.98349 25.156 6.93562C25.1592 6.93233 25.161 6.92806 25.1613 6.92356C25.1615 6.91905 25.1601 6.91461 25.1574 6.911Z" fill="#C66720"/>
<path fill-rule="evenodd" clip-rule="evenodd" d="M25.4625 6.56215C25.3458 6.50237 25.2476 6.41261 25.178 6.30227C25.1656 6.28175 25.1297 6.30227 25.1421 6.32005C25.2056 6.44633 25.3096 6.54827 25.4377 6.61002C25.4653 6.62097 25.4901 6.57446 25.4625 6.56215Z" fill="#C66720"/>
<path fill-rule="evenodd" clip-rule="evenodd" d="M25.6517 6.07942C25.5987 6.04526 25.548 6.00779 25.4998 5.96727C25.4528 5.92486 25.4086 5.88246 25.3617 5.84416C25.3437 5.83049 25.3202 5.85647 25.3354 5.87426C25.4074 5.98497 25.5074 6.07506 25.6255 6.1355C25.6327 6.13729 25.6402 6.13653 25.6469 6.13338C25.6536 6.13022 25.6589 6.12486 25.662 6.11822C25.6652 6.11157 25.6658 6.10406 25.6639 6.09698C25.6621 6.0899 25.6577 6.08369 25.6517 6.07942Z" fill="#C66720"/>
<path fill-rule="evenodd" clip-rule="evenodd" d="M2.25603 7.27904C2.13645 7.44133 2.05569 7.62842 2.01985 7.82616C2.01985 7.84257 2.04333 7.84394 2.04747 7.82616C2.09488 7.63835 2.17938 7.4617 2.29608 7.3064C2.31266 7.28041 2.2726 7.25305 2.25603 7.27904Z" fill="#C66720"/>
<path fill-rule="evenodd" clip-rule="evenodd" d="M2.04059 7.14348C2.0102 7.15716 1.99777 7.18315 1.97705 7.2105C1.95633 7.23786 1.92042 7.28983 1.89556 7.33224C1.86033 7.38086 1.84148 7.43926 1.8417 7.49911C1.8417 7.51962 1.87346 7.51552 1.87484 7.49911C1.8909 7.43719 1.92009 7.37937 1.96048 7.3295C1.99363 7.27889 2.05854 7.22144 2.06545 7.16126C2.06569 7.15822 2.06513 7.15517 2.06384 7.1524C2.06255 7.14963 2.06056 7.14724 2.05806 7.14546C2.05556 7.14367 2.05264 7.14255 2.04958 7.1422C2.04652 7.14186 2.04342 7.1423 2.04059 7.14348Z" fill="#C66720"/>
<path fill-rule="evenodd" clip-rule="evenodd" d="M2.43976 7.58816C2.4009 7.65001 2.36939 7.7161 2.34584 7.78512C2.3151 7.84952 2.29282 7.91755 2.27954 7.98755C2.27954 8.00533 2.30578 8.0108 2.30993 7.98755C2.32763 7.92014 2.35312 7.85496 2.38589 7.79333C2.42623 7.73117 2.45434 7.66202 2.46876 7.58952C2.46895 7.58572 2.46759 7.58199 2.465 7.57917C2.46241 7.57635 2.4588 7.57466 2.45495 7.57448C2.45111 7.5743 2.44734 7.57564 2.44449 7.5782C2.44165 7.58077 2.43994 7.58435 2.43976 7.58816Z" fill="#C66720"/>
<path fill-rule="evenodd" clip-rule="evenodd" d="M3.18824 8.06689C3.08465 8.09835 3.03631 8.23377 3.00868 8.32814C3.00764 8.333 3.00841 8.33807 3.01086 8.34241C3.01331 8.34675 3.01726 8.35006 3.02198 8.35173C3.0267 8.3534 3.03188 8.35332 3.03655 8.35149C3.04121 8.34967 3.04505 8.34623 3.04736 8.34182C3.06391 8.29403 3.08568 8.24816 3.11227 8.20504C3.13851 8.16401 3.17581 8.12981 3.20343 8.08878C3.20895 8.08057 3.20067 8.06689 3.18824 8.06689Z" fill="#C66720"/>
<path fill-rule="evenodd" clip-rule="evenodd" d="M3.41755 8.47712C3.36369 8.49627 3.33468 8.56329 3.30982 8.6139C3.28161 8.67273 3.26878 8.73764 3.27253 8.80266C3.27253 8.82454 3.30568 8.82865 3.30706 8.80266C3.31169 8.74826 3.3257 8.69506 3.34849 8.64536C3.37059 8.59202 3.42446 8.55098 3.43965 8.49764C3.4407 8.49464 3.44086 8.4914 3.44009 8.48832C3.43933 8.48524 3.43767 8.48244 3.43533 8.48027C3.43299 8.4781 3.43007 8.47664 3.42691 8.47609C3.42376 8.47553 3.42051 8.47589 3.41755 8.47712Z" fill="#C66720"/>
<path fill-rule="evenodd" clip-rule="evenodd" d="M3.63987 8.62079C3.5956 8.69071 3.56208 8.76677 3.54042 8.84647C3.51085 8.92076 3.48865 8.99772 3.47413 9.07626C3.47303 9.08098 3.47387 9.08593 3.47646 9.09004C3.47905 9.09414 3.48318 9.09706 3.48794 9.09815C3.4927 9.09924 3.4977 9.09841 3.50185 9.09584C3.50599 9.09328 3.50894 9.08918 3.51004 9.08447C3.5306 9.0083 3.55691 8.93377 3.58877 8.86152C3.62776 8.78894 3.65568 8.71104 3.67164 8.63036C3.67227 8.62829 3.67249 8.62613 3.67228 8.62398C3.67207 8.62183 3.67143 8.61974 3.6704 8.61784C3.66938 8.61593 3.66798 8.61424 3.6663 8.61287C3.66461 8.6115 3.66267 8.61047 3.66059 8.60984C3.6585 8.60921 3.65631 8.609 3.65414 8.60921C3.65197 8.60942 3.64986 8.61005 3.64794 8.61107C3.64602 8.61208 3.64431 8.61346 3.64293 8.61513C3.64154 8.6168 3.6405 8.61872 3.63987 8.62079Z" fill="#C66720"/>
<path fill-rule="evenodd" clip-rule="evenodd" d="M3.84291 8.84096C3.79477 8.94779 3.77481 9.06498 3.78491 9.18154C3.78491 9.2048 3.82082 9.20753 3.82082 9.18154C3.82082 9.06802 3.87192 8.95586 3.86501 8.8437C3.86425 8.84153 3.86289 8.83962 3.86109 8.83818C3.85929 8.83674 3.85712 8.83583 3.85482 8.83554C3.85252 8.83526 3.85019 8.83562 3.84809 8.83657C3.84598 8.83753 3.84419 8.83905 3.84291 8.84096Z" fill="#C66720"/>
<path fill-rule="evenodd" clip-rule="evenodd" d="M10.8248 10.8763C10.776 11.0031 10.7575 11.1393 10.771 11.2743C10.771 11.2921 10.8027 11.2907 10.8041 11.2743C10.8041 11.2087 10.8138 11.1376 10.8221 11.0787C10.838 11.0138 10.8459 10.9472 10.8455 10.8804C10.8455 10.8667 10.829 10.8681 10.8248 10.8763Z" fill="#C66720"/>
<path fill-rule="evenodd" clip-rule="evenodd" d="M11.1853 11.1388C11.1853 11.0758 11.2157 11.0198 11.2212 10.9568C11.2204 10.9547 11.219 10.9529 11.2172 10.9517C11.2153 10.9504 11.2131 10.9497 11.2108 10.9497C11.2086 10.9497 11.2064 10.9504 11.2045 10.9517C11.2027 10.9529 11.2013 10.9547 11.2005 10.9568C11.1604 11.0209 11.1369 11.0938 11.1324 11.169C11.1278 11.2442 11.1422 11.3194 11.1742 11.3877C11.1839 11.4082 11.2115 11.3877 11.2046 11.374C11.18 11.2981 11.1733 11.2176 11.1853 11.1388Z" fill="#C66720"/>
<path fill-rule="evenodd" clip-rule="evenodd" d="M11.5168 11.1853C11.5211 11.1228 11.5155 11.06 11.5003 10.9992C11.4987 10.9964 11.4964 10.994 11.4936 10.9923C11.4908 10.9906 11.4876 10.9897 11.4844 10.9897C11.4811 10.9897 11.4779 10.9906 11.4751 10.9923C11.4723 10.994 11.47 10.9964 11.4685 10.9992C11.4567 11.0612 11.4567 11.1247 11.4685 11.1866C11.4725 11.258 11.485 11.3288 11.5058 11.3973C11.5058 11.4205 11.5486 11.415 11.5431 11.3973C11.5285 11.3274 11.5197 11.2565 11.5168 11.1853Z" fill="#C66720"/>
<path fill-rule="evenodd" clip-rule="evenodd" d="M23.9461 8.06673C23.9461 8.05168 23.9254 8.04347 23.9185 8.05578C23.907 8.07356 23.901 8.0942 23.901 8.11528C23.901 8.13636 23.907 8.157 23.9185 8.17478C23.9406 8.21718 23.9944 8.2801 24.0469 8.27326C24.0511 8.27228 24.0547 8.26974 24.057 8.26617C24.0593 8.2626 24.0602 8.25828 24.0593 8.25411C24.0455 8.18025 23.9281 8.15016 23.9461 8.06673Z" fill="#C66720"/>
<path fill-rule="evenodd" clip-rule="evenodd" d="M24.4447 7.84658C24.4309 7.82469 24.4184 7.82196 24.3936 7.81375C24.3596 7.80321 24.3294 7.78328 24.3066 7.7563C24.2624 7.70467 24.2316 7.64318 24.2168 7.57712C24.2162 7.57443 24.2152 7.57187 24.2136 7.56958C24.2121 7.5673 24.2101 7.56534 24.2078 7.56382C24.2055 7.56229 24.2029 7.56123 24.2002 7.5607C24.1974 7.56017 24.1946 7.56017 24.1919 7.56071C24.1892 7.56125 24.1866 7.56231 24.1843 7.56384C24.182 7.56537 24.18 7.56733 24.1785 7.56962C24.1769 7.57191 24.1759 7.57447 24.1753 7.57717C24.1748 7.57986 24.1748 7.58263 24.1753 7.58533C24.1878 7.66081 24.2186 7.73216 24.2651 7.79323C24.2996 7.83564 24.3908 7.90539 24.4461 7.8671C24.448 7.86395 24.4489 7.86029 24.4487 7.85662C24.4484 7.85294 24.447 7.84943 24.4447 7.84658Z" fill="#C66720"/>
<path fill-rule="evenodd" clip-rule="evenodd" d="M24.6794 7.38289C24.6366 7.34049 24.591 7.29809 24.5509 7.25295C24.5344 7.2338 24.4998 7.25295 24.5123 7.2762C24.5435 7.33125 24.5816 7.38225 24.6255 7.42803C24.6628 7.46633 24.7042 7.52788 24.7636 7.53198C24.7665 7.53222 24.7695 7.5318 24.7722 7.53076C24.7749 7.52973 24.7773 7.5281 24.7793 7.52599C24.7813 7.52389 24.7828 7.52137 24.7837 7.51861C24.7845 7.51586 24.7848 7.51295 24.7844 7.51009C24.7761 7.45675 24.7208 7.42119 24.6794 7.38289Z" fill="#C66720"/>
<path opacity="0.4" fill-rule="evenodd" clip-rule="evenodd" d="M14.5858 2.62164C14.5858 2.99779 14.0043 3.30554 13.2847 3.30554C12.5651 3.30554 11.9836 3.00052 11.9836 2.62164C11.9836 2.24276 12.5651 1.93774 13.2847 1.93774C14.0043 1.93774 14.5858 2.2455 14.5858 2.62164Z" fill="#DA840D"/>
<path fill-rule="evenodd" clip-rule="evenodd" d="M21.7098 8.34041C18.7762 7.60316 17.5483 9.22127 17.5967 11.1252C17.616 11.8693 18.3011 12.8952 18.7513 13.6707C19.1508 14.2903 19.6166 14.8654 20.1408 15.3859C20.4723 15.6198 20.9143 15.8893 21.3576 15.8893C21.5276 15.8727 21.6901 15.8118 21.8286 15.7128C21.8935 15.7254 21.9563 15.747 22.0151 15.7771C22.225 15.8482 22.3175 15.5583 22.5468 15.6609C22.9128 15.8264 23.2291 15.4899 23.5026 15.3066C23.591 15.2478 24.4694 13.8991 24.5647 13.828C25.4694 12.6777 25.9252 12.3385 25.9349 10.942C25.9459 9.19665 25.0606 7.63325 21.7098 8.34041Z" fill="#C73A54"/>
<g style="mix-blend-mode:multiply">
<path fill-rule="evenodd" clip-rule="evenodd" d="M22.8218 8.79721C22.8218 8.99691 22.3052 9.17199 21.6575 9.1884C21.0097 9.20482 20.4807 9.05162 20.4752 8.85603C20.4697 8.66043 20.9917 8.47715 21.6395 8.46484C22.2873 8.45253 22.8163 8.59752 22.8218 8.79721Z" fill="#ED6366"/>
</g>
<path fill-rule="evenodd" clip-rule="evenodd" d="M19.8619 9.44295C19.6036 9.05587 19.0747 9.16939 18.7473 9.39645L18.7307 9.40876C18.6547 9.4596 18.586 9.52033 18.5263 9.58931C18.2935 9.83397 18.1459 10.146 18.1051 10.4797C18.065 10.8901 18.2045 11.3456 18.5622 11.5275C18.5723 11.5326 18.5806 11.5407 18.5857 11.5507C18.5994 11.5479 18.6128 11.5438 18.6258 11.5384C18.8274 11.4564 18.8178 11.1281 18.8191 10.9612C18.8191 10.5905 19.1299 10.4264 19.4144 10.2677C19.6755 10.1186 20.0884 9.78354 19.8619 9.44295Z" fill="#ED6366"/>
<g style="mix-blend-mode:multiply">
<path fill-rule="evenodd" clip-rule="evenodd" d="M24.5357 12.6024C24.2926 12.2919 23.928 12.6708 23.754 12.8623C23.3493 13.3068 23.0965 13.8553 22.6186 14.241C22.1408 14.6267 21.2734 14.3463 20.9018 14.9071C20.8845 14.9341 20.8727 14.9643 20.8671 14.9958C20.8615 15.0274 20.8623 15.0597 20.8693 15.091C20.8764 15.1222 20.8896 15.1518 20.9082 15.178C20.9268 15.2042 20.9505 15.2265 20.9778 15.2436C21.0164 15.2586 21.0568 15.2687 21.098 15.2737C21.1839 15.3214 21.2773 15.3547 21.3742 15.3722C21.6772 15.4114 21.9849 15.3539 22.2526 15.208C22.4957 15.0931 22.7706 15.2272 23.0123 15.1136C23.1016 15.0654 23.1786 14.9976 23.2374 14.9153C23.3149 14.8263 23.38 14.7274 23.4308 14.6212C23.5523 14.422 23.691 14.2334 23.8451 14.0577C24.0325 13.8471 24.202 13.6216 24.352 13.3834C24.5316 13.1276 24.6946 12.8075 24.5357 12.6024Z" fill="#ED6366"/>
</g>
<path fill-rule="evenodd" clip-rule="evenodd" d="M24.4585 5.7415C24.2955 5.68679 23.9958 5.93299 23.8687 6.00822C23.5787 6.18057 23.2845 6.35428 23.0055 6.54303C22.5817 6.83738 22.2305 7.22264 21.9779 7.6701C21.8726 7.86064 21.802 8.06807 21.7694 8.28287C21.7265 8.39564 21.7049 8.51526 21.7058 8.63576C21.7051 8.64421 21.706 8.65272 21.7086 8.66081C21.7112 8.6689 21.7153 8.6764 21.7208 8.68288C21.7264 8.68937 21.7331 8.69471 21.7407 8.69859C21.7484 8.70248 21.7567 8.70483 21.7652 8.70552C22.4724 8.71373 23.1961 8.25551 23.6906 7.79457C23.9497 7.56837 24.1549 7.28808 24.2914 6.97389C24.3594 6.7967 24.4103 6.6135 24.4433 6.42677C24.482 6.22707 24.424 5.98497 24.4889 5.80032C24.4924 5.78853 24.4912 5.77584 24.4856 5.76489C24.4799 5.75394 24.4702 5.74556 24.4585 5.7415Z" fill="#8DB54F"/>
<path fill-rule="evenodd" clip-rule="evenodd" d="M21.5869 8.68097C21.5869 8.48537 21.6463 8.36364 21.7029 7.74813C21.7596 7.13262 21.7485 6.82487 21.7899 6.72365C21.8314 6.62243 22.1629 6.83718 22.1629 6.83718C22.1629 6.83718 22.0565 7.30907 21.9778 7.69615C21.8991 8.08324 21.8203 8.77945 21.8203 8.77945C21.8203 8.77945 21.7775 8.89298 21.6739 8.86425C21.5703 8.83553 21.5869 8.68097 21.5869 8.68097Z" fill="#300D33"/>
</svg>
